test/waveforms/BLTZAL.vcd
$date
	Mon Dec 14 10:31:09 2020
$end
$version
	Icarus Verilog
$end
$timescale
	10ps
$end
$scope module mips_tb $end
$scope module cpuInst $end
$var wire 1 ! clk $end
$var wire 32 " constant_1 [31:0] $end
$var wire 32 # constant_31 [31:0] $end
$var wire 32 $ constant_4 [31:0] $end
$var wire 32 % constant_reset [31:0] $end
$var wire 2 & lrmuxLSB [1:0] $end
$var wire 1 ' reset $end
$var wire 1 ( waitrequest $end
$var wire 32 ) writedata [31:0] $end
$var wire 1 * write $end
$var wire 4 + state [3:0] $end
$var wire 32 , signimm [31:0] $end
$var wire 32 - shiftimm [31:0] $end
$var wire 1 . reset_mux_cnt $end
$var wire 32 / register_v0 [31:0] $end
$var wire 32 0 regbout [31:0] $end
$var wire 32 1 regaout [31:0] $end
$var wire 32 2 readdata [31:0] $end
$var wire 1 3 read $end
$var wire 1 4 pc_write $end
$var wire 2 5 pc_src_mux [1:0] $end
$var wire 32 6 pc_out [31:0] $end
$var wire 32 7 pc_data [31:0] $end
$var wire 32 8 pc4_jump2 [31:0] $end
$var wire 3 9 msk_cnt [2:0] $end
$var wire 32 : masked_data [31:0] $end
$var wire 1 ; lrmuxMSB $end
$var wire 1 < lr_en $end
$var wire 1 = link_in $end
$var wire 1 > link_en $end
$var wire 1 ? link $end
$var wire 1 @ jump $end
$var wire 32 A irout [31:0] $end
$var wire 1 B ir_write $end
$var wire 1 C hilowrite $end
$var wire 1 D hilosel $end
$var wire 32 E hiloout [31:0] $end
$var wire 1 F halt $end
$var wire 32 G final_pc_data [31:0] $end
$var wire 32 H final_data [31:0] $end
$var wire 2 I extendcont [1:0] $end
$var wire 1 J extend_mux $end
$var wire 16 K extend_in [15:0] $end
$var wire 1 L divrst $end
$var wire 1 M divdone $end
$var wire 32 N constant_0 [31:0] $end
$var wire 2 O cond [1:0] $end
$var wire 4 P byteenable [3:0] $end
$var wire 2 Q byte_cnt [1:0] $end
$var wire 32 R bout [31:0] $end
$var wire 32 S aout [31:0] $end
$var wire 32 T aluresult [31:0] $end
$var wire 32 U aluout [31:0] $end
$var wire 4 V aluop [3:0] $end
$var wire 2 W alu2out [1:0] $end
$var wire 32 X altpcsrc [31:0] $end
$var wire 1 Y altpcmux_cnt $end
$var wire 32 Z altpcdata [31:0] $end
$var wire 1 [ alt_pc_write $end
$var wire 32 \ address [31:0] $end
$var wire 1 ] active $end
$var wire 32 ^ WriteRegData [31:0] $end
$var wire 32 _ SrcBOut [31:0] $end
$var wire 32 ` SrcAOut [31:0] $end
$var wire 1 a RegWrite $end
$var wire 2 b RegDst [1:0] $end
$var wire 2 c MemToReg [1:0] $end
$var wire 1 d Jump_EN $end
$var wire 1 e JumpIN $end
$var wire 2 f IorD_cnt [1:0] $end
$var wire 5 g Dst [4:0] $end
$var wire 3 h ALUSrcB [2:0] $end
$var wire 2 i ALUSrcA [1:0] $end
$var wire 1 j ABswitch_cnt $end
$upscope $end
$upscope $end
$enddefinitions $end
#0
$dumpvars
xj
bx i
bx h
bx g
bx f
0e
0d
bx c
bx b
xa
bx `
bx _
bx ^
x]
bx \
x[
bx Z
xY
bx X
bx W
bx V
bx U
bx T
bx S
bx R
bx Q
bx P
bx O
bx N
1M
xL
bx K
xJ
bx I
bx H
bx G
xF
bx E
xD
xC
xB
bx A
x@
x?
x>
x=
x<
x;
bx :
bx 9
bx00 8
bx 7
bx 6
bx 5
x4
x3
bx 2
bx 1
bx 0
bx /
x.
bx00 -
bx ,
bx +
x*
bx )
0(
0'
bx &
b10111111110000000000000000000000 %
b100 $
b11111 #
b1 "
0!
$end
#1000
b10110000000000000000000000000000 8
0@
0?
b0 &
b0 W
b0 U
b0 A
b10111111110000000000000000000000 6
b0 Z
1'
1!
#2000
0!
#3000
b0 -
b10111111110000000000000000000100 7
b10111111110000000000000000000100 T
b1 O
b100 _
b0 g
b0 ^
b0 K
b0 ,
b10111111110000000000000000000000 `
b0 R
b0 S
b10111111110000000000000000000000 G
b10110000000000000000000000000000 X
b10111111110000000000000000000000 \
b1111 P
1J
0L
0=
0>
b0 V
b0 Q
b0 9
0;
0<
0D
0C
1.
1Y
0[
b0 I
0j
0a
14
13
0*
0B
b1 h
b0 i
b0 5
b0 f
b0 b
b0 c
b0 N
b0 /
b0 )
b0 0
b0 1
0'
0F
b1111 +
1]
1!
#4000
0!
#5000
b100100000000110000000000001010 H
b100100000000110000000000001010 :
b10111111110000000000000000000100 ^
b100100000000110000000000001010 2
b1110 +
b0 E
b10111111110000000000000000000100 U
1!
#6000
0!
#7000
b101000 -
b1010 ,
b1010 K
b10111111110000000000000000000100 G
b10111111110000000000000000000100 X
0J
0.
0Y
1B
b0 +
1!
#8000
0!
#9000
b10110000000011000000000000101000 8
b11 g
b101000 _
b10111111110000000000000000101100 T
b10110000000011000000000000101000 G
b10110000000011000000000000101000 X
b10110000000011000000000000101000 7
b10111111110000000000000000000100 \
1J
1Y
b10 I
04
0B
b11 h
b10 5
b10111111110000000000000000000100 `
b1 +
b100100000000110000000000001010 A
b10111111110000000000000000000100 6
1!
#10000
0!
#11000
b1010 T
b100100000001000000000000000000 H
b0 `
b1010 _
1d
b10111111110000000000000000101100 G
b10111111110000000000000000101100 X
b10111111110000000000000000101100 7
b100100000001000000000000000000 :
1>
0Y
b1 i
b10 h
b1 5
b10111111110000000000000000101100 ^
b10 +
b100100000001000000000000000000 2
b10111111110000000000000000101100 U
1!
#12000
0!
#13000
b0 T
b0 O
b0 _
0d
b1010 G
b1010 X
b1010 7
b1000 \
0>
1a
b0 h
b10 f
b1010 ^
b11 +
b1010 U
1!
#14000
0!
#15000
b10111111110000000000000000101100 T
b1 O
b11111111111111111111111111111111 H
b101000 _
b10111111110000000000000000000100 `
b1010 R
b10110000000011000000000000101000 G
b10110000000011000000000000101000 X
b10110000000011000000000000101000 7
b10111111110000000000000000000100 \
b11111111111111111111111111111111 :
1Y
0a
b11 h
b0 i
b10 5
b0 f
b1 c
b11111111111111111111111111111111 ^
b1010 )
b1010 0
b100 +
b11111111111111111111111111111111 2
b0 U
b10 &
b10 W
1!
#16000
0!
#17000
b0 -
b0 ,
b10111111110000000000000000001000 T
b100100000001000000000000000000 H
b0 K
b100 _
b10111111110000000000000000101100 ^
b10111111110000000000000000001000 G
b10111111110000000000000000101100 X
b10111111110000000000000000001000 7
b100100000001000000000000000000 :
0J
0Y
b0 I
14
1B
b1 h
b0 5
b0 c
b100100000001000000000000000000 2
b0 +
b0 &
b0 W
b10111111110000000000000000101100 U
1!
#18000
0!
#19000
b0 R
b10110000000100000000000000000000 8
b100 g
b0 )
b0 0
b0 _
b10111111110000000000000000001000 T
b10110000000100000000000000000000 G
b10110000000100000000000000000000 X
b10110000000100000000000000000000 7
b10111111110000000000000000001000 \
1J
1Y
b10 I
04
0B
b11 h
b10 5
b10111111110000000000000000001000 ^
b10111111110000000000000000001000 `
b1 +
b10111111110000000000000000001000 6
b100100000001000000000000000000 A
b10111111110000000000000000001000 U
1!
#20000
0!
#21000
b0 T
b0 O
b100100000001011111111111111100 H
b0 `
1d
b10111111110000000000000000001000 G
b10111111110000000000000000001000 X
b10111111110000000000000000001000 7
b100100000001011111111111111100 :
1>
0Y
b1 i
b10 h
b1 5
b100100000001011111111111111100 2
b10 +
1!
#22000
0!
#23000
b0 \
0d
0>
1a
b0 h
b10 f
b0 ^
b0 G
b0 X
b0 7
b11 +
b0 U
1!
#24000
0!
#25000
b10111111110000000000000000001000 T
b1 O
b0 H
b0 ^
b10111111110000000000000000001000 `
b10110000000100000000000000000000 G
b10110000000100000000000000000000 X
b10110000000100000000000000000000 7
b10111111110000000000000000001000 \
b0 :
1Y
0a
b11 h
b0 i
b10 5
b0 f
b1 c
b0 2
b100 +
1!
#26000
0!
#27000
b10111111110000000000000000001100 T
b111111111111110000 -
b1111111111111100 ,
b100100000001011111111111111100 H
b100 _
b10111111110000000000000000001000 ^
b10111111110000000000000000001100 G
b10111111110000000000000000001000 X
b10111111110000000000000000001100 7
b1111111111111100 K
b100100000001011111111111111100 :
0J
0Y
b0 I
14
1B
b1 h
b0 5
b0 c
b0 +
b100100000001011111111111111100 2
b10111111110000000000000000001000 U
1!
#28000
0!
#29000
b10110000000101111111111111110000 8
b11111111111111111111111111110000 -
b101 g
b11111111111111111111111111111100 ,
b111111111111110000 _
b10111111110000111111111111111100 T
b10110000000101111111111111110000 G
b10110000000101111111111111110000 X
b10110000000101111111111111110000 7
b10111111110000000000000000001100 \
1J
1Y
b10 I
04
0B
b11 h
b10 5
b10111111110000000000000000001100 ^
b10111111110000000000000000001100 `
b1 +
b10111111110000000000000000001100 U
b100100000001011111111111111100 A
b10111111110000000000000000001100 6
1!
#30000
0!
#31000
b11111111111111111111111111111100 T
b10 O
b100011100000000000000001000 H
b11111111111111111111111111111100 _
b10111111110000111111111111111100 G
b10111111110000111111111111111100 X
b10111111110000111111111111111100 7
b0 `
1d
b100011100000000000000001000 :
1>
0Y
b1 i
b10 h
b1 5
b10111111110000111111111111111100 ^
b10 +
b100011100000000000000001000 2
b10111111110000111111111111111100 U
1!
#32000
0!
#33000
b0 T
b0 O
b0 _
0d
b11111111111111111111111111111100 \
0>
1a
b0 h
b10 f
b11111111111111111111111111111100 ^
b11111111111111111111111111111100 G
b11111111111111111111111111111100 X
b11111111111111111111111111111100 7
b11 +
b11111111111111111111111111111100 U
1!
#34000
0!
#35000
b10111111101111111111111111111100 T
b1 O
b11111111111111111111111111111100 R
bx H
b11111111111111111111111111110000 _
b11111111111111111111111111111100 )
b11111111111111111111111111111100 0
b10111111110000000000000000001100 `
b10111111110000000000000000001100 \
bx :
1Y
0a
b11 h
b0 i
b10 5
b0 f
b1 c
bx ^
b10110000000101111111111111110000 G
b10110000000101111111111111110000 X
b10110000000101111111111111110000 7
b100 +
bx 2
b0 U
1!
#36000
0!
#37000
b10111111110000000000000000010000 T
b100000 -
b100011100000000000000001000 H
b100 _
b10111111101111111111111111111100 ^
b10111111110000000000000000010000 G
b10111111101111111111111111111100 X
b10111111110000000000000000010000 7
b1000 K
b1000 ,
b100011100000000000000001000 :
0J
0Y
b0 I
14
1B
b1 h
b0 5
b0 c
b100011100000000000000001000 2
b0 +
b10111111101111111111111111111100 U
1!
#38000
0!
#39000
b10110001110000000000000000100000 8
b10000 g
b100000 _
b10110001110000000000000000100000 G
b10110001110000000000000000100000 7
b0 R
b1010 S
b10111111110000000000000000110000 T
b0 )
b0 0
b1010 1
b10111111110000000000000000010000 `
b10111111110000000000000000010000 \
1J
1Y
b10 I
04
0B
b11 h
b10 5
b10111111110000000000000000010000 ^
b10110001110000000000000000100000 X
b1 +
b10111111110000000000000000010000 6
b100011100000000000000001000 A
b10111111110000000000000000010000 U
1!
#40000
0!
#41000
b10 O
b100100000000000000000000000000 H
b0 _
b10111111110000000000000000110000 G
b10111111110000000000000000110000 X
b10111111110000000000000000110000 7
b11111 g
b1010 `
b1010 T
0e
1d
b100100000000000000000000000000 :
1=
1>
b1 V
0Y
1[
b1 i
b0 h
b1 5
b10 b
b10111111110000000000000000110000 ^
b100100000000000000000000000000 2
b10 +
b10111111110000000000000000110000 U
1!
#42000
0!
#43000
0d
b0 g
b1010 ^
b1010 G
b1010 X
b1010 7
b1000 \
0=
0>
b0 V
0[
b10 f
b1 b
b11 +
b10111111110000000000000000110000 Z
b1010 U
1?
1!
#44000
0!
#45000
b10111111110000000000000000110000 T
b1 O
b100000 _
b10110001110000000000000000100000 G
b10110001110000000000000000100000 X
b10110001110000000000000000100000 7
b10111111110000000000000000010000 \
b11111111111111111111111111111111 H
b10000 g
b11111111111111111111111111111111 ^
b10111111110000000000000000010000 `
1Y
b11 h
b0 i
b10 5
b0 f
b0 b
b1 c
b11111111111111111111111111111111 :
b11111111111111111111111111111111 2
b100 +
b10 &
b10 W
1!
#46000
0!
#47000
b10111111110000000000000000010100 T
b0 -
b0 ,
b100100000000000000000000000000 H
b100 _
b10111111110000000000000000110000 ^
b10111111110000000000000000010100 G
b10111111110000000000000000110000 X
b10111111110000000000000000010100 7
b0 K
b100100000000000000000000000000 :
0J
0Y
b0 I
14
1B
b1 h
b0 5
b0 c
b0 +
b100100000000000000000000000000 2
b10111111110000000000000000110000 U
1!
#48000
0!
#49000
b0 S
b10110000000000000000000000000000 8
b0 g
b0 1
b0 _
b10111111110000000000000000010100 T
b10110000000000000000000000000000 G
b10110000000000000000000000000000 X
b10110000000000000000000000000000 7
b10111111110000000000000000010100 \
1J
1Y
b10 I
04
0B
b11 h
b10 5
b10111111110000000000000000010100 ^
b10111111110000000000000000010100 `
b1 +
b0 &
b0 W
b10111111110000000000000000010100 U
b100100000000000000000000000000 A
b10111111110000000000000000010100 6
1!
#50000
0!
#51000
b0 T
b0 O
b10111111110000000000000000010100 G
b10111111110000000000000000010100 X
b10111111110000000000000000010100 7
b0 `
1d
b100100000000100000000000000101 H
1>
0Y
b1 i
b10 h
b1 5
b100100000000100000000000000101 :
b10 +
b100100000000100000000000000101 2
1!
#52000
0!
#53000
b0 \
0d
b0 G
b0 X
b0 7
0>
1a
b0 h
b10 f
b0 ^
b11 +
0?
b0 U
1!
#54000
0!
#55000
b10111111110000000000000000010100 T
b1 O
b0 H
b10111111110000000000000000010100 `
b0 ^
b10110000000000000000000000000000 G
b10110000000000000000000000000000 X
b10110000000000000000000000000000 7
b10111111110000000000000000010100 \
b0 :
1Y
0a
b11 h
b0 i
b10 5
b0 f
b1 c
b100 +
b0 2
1!
#56000
0!
#57000
b10100 -
b101 ,
b10111111110000000000000000011000 T
b100100000000100000000000000101 H
b101 K
b100 _
b10111111110000000000000000010100 ^
b10111111110000000000000000011000 G
b10111111110000000000000000010100 X
b10111111110000000000000000011000 7
b100100000000100000000000000101 :
0J
0Y
b0 I
14
1B
b1 h
b0 5
b0 c
b100100000000100000000000000101 2
b0 +
b10111111110000000000000000010100 U
1!
#58000
0!
#59000
b10110000000010000000000000010100 8
b10 g
b10100 _
b10110000000010000000000000010100 G
b10110000000010000000000000010100 7
b10111111110000000000000000101100 T
b10111111110000000000000000011000 `
b10111111110000000000000000011000 \
1J
1Y
b10 I
04
0B
b11 h
b10 5
b10111111110000000000000000011000 ^
b10110000000010000000000000010100 X
b1 +
b10111111110000000000000000011000 6
b100100000000100000000000000101 A
b10111111110000000000000000011000 U
1!
#60000
0!
#61000
b101 T
b100100100000000000000000101 H
b101 _
b10111111110000000000000000101100 G
b10111111110000000000000000101100 X
b10111111110000000000000000101100 7
b0 `
1d
b100100100000000000000000101 :
1>
0Y
b1 i
b10 h
b1 5
b10111111110000000000000000101100 ^
b100100100000000000000000101 2
b10 +
b10111111110000000000000000101100 U
1!
#62000
0!
#63000
b0 T
b0 O
b0 _
0d
b100 \
0>
1a
b0 h
b10 f
b101 ^
b101 G
b101 X
b101 7
b11 +
b101 U
1!
#64000
0!
#65000
b10111111110000000000000000101100 T
b1 O
b10111111110000000000000000000100 H
b10100 _
b10111111110000000000000000011000 `
b101 R
b10110000000010000000000000010100 G
b10110000000010000000000000010100 X
b10110000000010000000000000010100 7
b10111111110000000000000000011000 \
b10111111110000000000000000000100 :
1Y
0a
b11 h
b0 i
b10 5
b0 f
b1 c
b10111111110000000000000000000100 ^
b101 /
b101 )
b101 0
b10111111110000000000000000000100 2
b100 +
b1 &
b1 W
b0 U
1!
#66000
0!
#67000
b10111111110000000000000000011100 T
b100 _
b10111111110000000000000000101100 ^
b10111111110000000000000000011100 G
b10111111110000000000000000101100 X
b10111111110000000000000000011100 7
b100100100000000000000000101 H
0J
0Y
b0 I
14
1B
b1 h
b0 5
b0 c
b100100100000000000000000101 :
b0 +
b100100100000000000000000101 2
b10111111110000000000000000101100 U
b0 &
b0 W
1!
#68000
0!
#69000
b0 R
b10110010010000000000000000010100 8
b10000 g
b0 )
b0 0
b10100 _
b10111111110000000000000000110000 T
b10110010010000000000000000010100 G
b10110010010000000000000000010100 X
b10110010010000000000000000010100 7
b10111111110000000000000000011100 \
1J
1Y
b10 I
04
0B
b11 h
b10 5
b10111111110000000000000000011100 ^
b10111111110000000000000000011100 `
b1 +
b10111111110000000000000000011100 U
b100100100000000000000000101 A
b10111111110000000000000000011100 6
1!
#70000
0!
#71000
b0 O
b100100000000000000000000000000 H
b0 _
b10111111110000000000000000110000 G
b10111111110000000000000000110000 X
b10111111110000000000000000110000 7
b11111 g
b0 `
b0 T
0e
1d
b100100000000000000000000000000 :
1=
1>
b1 V
0Y
1[
b1 i
b0 h
b1 5
b10 b
b10111111110000000000000000110000 ^
b10 +
b100100000000000000000000000000 2
b10111111110000000000000000110000 U
1!
#72000
0!
#73000
b0 g
0d
b0 G
b0 X
b0 7
b0 \
0=
0>
b0 V
0[
b10 f
b1 b
b0 ^
b11 +
1?
b0 U
1!
#74000
0!
#75000
b10111111110000000000000000110000 T
b1 O
b0 H
b10100 _
b10111111110000000000000000011100 `
b10000 g
b0 ^
b10110010010000000000000000010100 G
b10110010010000000000000000010100 X
b10110010010000000000000000010100 7
b10111111110000000000000000011100 \
b0 :
1Y
b11 h
b0 i
b10 5
b0 f
b0 b
b1 c
b100 +
b0 2
1!
#76000
0!
#77000
b10111111110000000000000000100000 T
b0 -
b0 ,
b100100000000000000000000000000 H
b100 _
b10111111110000000000000000110000 ^
b10111111110000000000000000100000 G
b10111111110000000000000000110000 X
b10111111110000000000000000100000 7
b0 K
b100100000000000000000000000000 :
0J
0Y
b0 I
14
1B
b1 h
b0 5
b0 c
b100100000000000000000000000000 2
b0 +
b10111111110000000000000000110000 U
1!
#78000
0!
#79000
b10110000000000000000000000000000 8
b0 g
b0 _
b10110000000000000000000000000000 G
b10110000000000000000000000000000 7
b10111111110000000000000000100000 T
b10111111110000000000000000100000 `
b10111111110000000000000000100000 \
1J
1Y
b10 I
04
0B
b11 h
b10 5
b10111111110000000000000000100000 ^
b10110000000000000000000000000000 X
b1 +
b10111111110000000000000000100000 6
b100100000000000000000000000000 A
b10111111110000000000000000100000 U
1!
#80000
0!
#81000
b0 T
b0 O
b100100000000100000000000000110 H
b0 `
1d
b10111111110000000000000000100000 G
b10111111110000000000000000100000 X
b10111111110000000000000000100000 7
b100100000000100000000000000110 :
1>
0Y
b1 i
b10 h
b1 5
b100100000000100000000000000110 2
b10 +
1!
#82000
0!
#83000
b0 \
0d
b0 G
b0 X
b0 7
0>
1a
b0 h
b10 f
b0 ^
b11 +
b0 U
0?
1!
#84000
0!
#85000
b10111111110000000000000000100000 T
b1 O
b0 H
b10111111110000000000000000100000 `
b0 ^
b10110000000000000000000000000000 G
b10110000000000000000000000000000 X
b10110000000000000000000000000000 7
b10111111110000000000000000100000 \
b0 :
1Y
0a
b11 h
b0 i
b10 5
b0 f
b1 c
b0 2
b100 +
1!
#86000
0!
#87000
b11000 -
b110 ,
b10111111110000000000000000100100 T
b100100000000100000000000000110 H
b110 K
b100 _
b10111111110000000000000000100000 ^
b10111111110000000000000000100100 G
b10111111110000000000000000100000 X
b10111111110000000000000000100100 7
b100100000000100000000000000110 :
0J
0Y
b0 I
14
1B
b1 h
b0 5
b0 c
b0 +
b100100000000100000000000000110 2
b10111111110000000000000000100000 U
1!
#88000
0!
#89000
b101 R
b10110000000010000000000000011000 8
b10 g
b101 )
b101 0
b11000 _
b10111111110000000000000000111100 T
b10110000000010000000000000011000 G
b10110000000010000000000000011000 X
b10110000000010000000000000011000 7
b10111111110000000000000000100100 \
1J
1Y
b10 I
04
0B
b11 h
b10 5
b10111111110000000000000000100100 ^
b10111111110000000000000000100100 `
b1 +
b10111111110000000000000000100100 U
b100100000000100000000000000110 A
b10111111110000000000000000100100 6
1!
#90000
0!
#91000
b110 T
b100101100000000000000000011 H
b110 _
b10111111110000000000000000111100 G
b10111111110000000000000000111100 X
b10111111110000000000000000111100 7
b0 `
1d
b100101100000000000000000011 :
1>
0Y
b1 i
b10 h
b1 5
b10111111110000000000000000111100 ^
b10 +
b100101100000000000000000011 2
b10111111110000000000000000111100 U
1!
#92000
0!
#93000
b101 T
b101 _
0d
b100 \
0>
1a
b0 h
b10 f
b110 ^
b110 G
b110 X
b110 7
b11 +
b110 U
1!
#94000
0!
#95000
b10111111110000000000000000111100 T
b110 R
b11000 _
b10111111110000000000000000100100 \
b10111111110000000000000000000100 H
b110 /
b110 )
b110 0
b10111111110000000000000000100100 `
1Y
0a
b11 h
b0 i
b10 5
b0 f
b1 c
b10111111110000000000000000000100 ^
b10110000000010000000000000011000 G
b10110000000010000000000000011000 X
b10110000000010000000000000011000 7
b10111111110000000000000000000100 :
b100 +
b10111111110000000000000000000100 2
b101 U
b10 &
b10 W
1!
#96000
0!
#97000
b10111111110000000000000000101000 T
b1100 -
b11 ,
b100101100000000000000000011 H
b100 _
b10111111110000000000000000111100 ^
b10111111110000000000000000101000 G
b10111111110000000000000000111100 X
b10111111110000000000000000101000 7
b11 K
b100101100000000000000000011 :
0J
0Y
b0 I
14
1B
b1 h
b0 5
b0 c
b100101100000000000000000011 2
b0 +
b1 &
b1 W
b10111111110000000000000000111100 U
1!
#98000
0!
#99000
b10110010110000000000000000001100 8
b10000 g
b1100 _
b10110010110000000000000000001100 G
b10110010110000000000000000001100 7
b0 R
b11111111111111111111111111111100 S
b10111111110000000000000000110100 T
b0 )
b0 0
b11111111111111111111111111111100 1
b10111111110000000000000000101000 `
1J
1Y
b10 I
04
0B
b11 h
b10 5
b10111111110000000000000000101000 ^
b10110010110000000000000000001100 X
b10111111110000000000000000101000 \
b1 +
b10111111110000000000000000101000 6
b100101100000000000000000011 A
b10111111110000000000000000101000 U
b0 &
b0 W
1!
#100000
0!
#101000
b100100000000000000000000000000 H
b0 _
b10111111110000000000000000110100 G
b10111111110000000000000000110100 X
b10111111110000000000000000110100 7
b11111 g
b11111111111111111111111111111100 `
b11111111111111111111111111111100 T
1e
1d
b100100000000000000000000000000 :
1=
1>
b1 V
0Y
1[
b1 i
b0 h
b1 5
b10 b
b10111111110000000000000000110100 ^
b100100000000000000000000000000 2
b10 +
b10111111110000000000000000110100 U
1!
#102000
0!
#103000
b0 g
0d
0e
b11111111111111111111111111111100 G
b11111111111111111111111111111100 X
b11111111111111111111111111111100 7
b11111111111111111111111111111100 \
0=
0>
b0 V
0[
b10 f
b1 b
b11111111111111111111111111111100 ^
b11 +
b10111111110000000000000000110100 Z
b11111111111111111111111111111100 U
1?
1@
1!
#104000
0!
#105000
b10111111110000000000000000110100 T
bx H
b1100 _
b10111111110000000000000000101000 `
b10000 g
bx ^
b10110010110000000000000000001100 G
b10110010110000000000000000001100 X
b10110010110000000000000000001100 7
b10111111110000000000000000101000 \
bx :
1Y
b11 h
b0 i
b10 5
b0 f
b0 b
b1 c
bx 2
b100 +
1!
#106000
0!
#107000
b10111111110000000000000000101100 T
b0 -
b0 ,
b100100000000000000000000000000 H
b100 _
b10111111110000000000000000110100 ^
b10111111110000000000000000101100 G
b10111111110000000000000000110100 X
b10111111110000000000000000101100 7
b0 K
b100100000000000000000000000000 :
0J
0Y
b0 I
14
1B
b1 h
b0 5
b0 c
b0 +
b100100000000000000000000000000 2
b10111111110000000000000000110100 U
1!
#108000
0!
#109000
b0 S
b10110000000000000000000000000000 8
b0 1
b11111 g
b10111111110000000000000000110000 T
b10111111110000000000000000110100 G
b10110000000000000000000000000000 X
b10111111110000000000000000110100 7
b10111111110000000000000000101100 \
1J
1>
1Y
b10 I
1a
0B
b11 5
b10 b
b11 c
b10111111110000000000000000110000 ^
b10111111110000000000000000101100 `
b1001 +
b10111111110000000000000000101100 U
b100100000000000000000000000000 A
b10111111110000000000000000101100 6
1!
#110000
0!
#111000
b0 O
b100100000000100000000000000111 H
b0 _
b0 T
1d
b0 `
b0 g
b10111111110000000000000000110000 G
b10111111110000000000000000110000 X
b10111111110000000000000000110000 7
b10111111110000000000000000110100 \
b100100000000100000000000000111 :
0Y
0a
04
b1 i
b10 h
b1 5
b0 b
b0 c
b10 +
b100100000000100000000000000111 2
b10111111110000000000000000110100 6
b10111111110000000000000000110000 U
0?
1!
#112000
0!
#113000
b10111110001000000100001 H
0d
b0 G
b0 X
b0 7
b0 \
b10111110001000000100001 :
0>
1a
b0 h
b10 f
b0 ^
b10111110001000000100001 2
b11 +
0@
b0 U
1!
#114000
0!
#115000
b10111111110000000000000000110100 T
b1 O
b0 H
b10111111110000000000000000110100 `
b0 ^
b10110000000000000000000000000000 G
b10110000000000000000000000000000 X
b10110000000000000000000000000000 7
b10111111110000000000000000110100 \
b0 :
1Y
0a
b11 h
b0 i
b10 5
b0 f
b1 c
b100 +
b0 2
1!
#116000
0!
#117000
b100000010000100 -
b1000000100001 ,
b10111111110000000000000000111000 T
b10111110001000000100001 H
b1000000100001 K
b100 _
b10111111110000000000000000110100 ^
b10111111110000000000000000111000 G
b10111111110000000000000000110100 X
b10111111110000000000000000111000 7
b10111110001000000100001 :
0J
0Y
b0 I
14
1B
b1 h
b0 5
b0 c
b10111110001000000100001 2
b0 +
b10111111110000000000000000110100 U
1!
#118000
0!
#119000
b10110001011111000100000010000100 8
b100000010000100 _
b10 g
b10110001011111000100000010000100 G
b10110001011111000100000010000100 7
b10111111110000000000000000110000 R
b110 S
b10111111110000000100000010111100 T
b10111111110000000000000000110000 )
b10111111110000000000000000110000 0
b110 1
b10111111110000000000000000111000 `
b10111111110000000000000000111000 \
1J
1Y
04
0B
b11 h
b10 5
b1 b
b10111111110000000000000000111000 ^
b10110001011111000100000010000100 X
b1 +
b10111111110000000000000000111000 6
b10111110001000000100001 A
b10111111110000000000000000111000 U
1!
#120000
0!
#121000
b10111111110000000000000000110110 T
b10 O
b1000 H
b10111111110000000000000000110000 _
b10111111110000000100000010111100 G
b10111111110000000100000010111100 X
b10111111110000000100000010111100 7
b110 `
1d
b1000 :
1>
0Y
b1 i
b0 h
b1 5
b10111111110000000100000010111100 ^
b1000 2
b10 +
b10111111110000000100000010111100 U
1!
#122000
0!
#123000
0d
b10111111110000000000000000110100 \
0>
1a
b10 f
b10111111110000000000000000110110 ^
b10111111110000000000000000110110 G
b10111111110000000000000000110110 X
b10111111110000000000000000110110 7
b11 +
b10111111110000000000000000110110 U
1!
#124000
0!
#125000
b10111111110000000100000010111100 T
b1 O
b100000010000100 _
b11111 g
b10111110001000000100001 ^
b10110001011111000100000010000100 G
b10110001011111000100000010000100 X
b10110001011111000100000010000100 7
b10111111110000000000000000111000 \
b10111110001000000100001 H
b10111111110000000000000000111000 `
b10111111110000000000000000110110 S
1Y
0a
b11 h
b0 i
b10 5
b0 f
b0 b
b1 c
b10111111110000000000000000110110 /
b10111111110000000000000000110110 1
b10111110001000000100001 :
b10111110001000000100001 2
b100 +
b10 &
b10 W
1!
#126000
0!
#127000
b10111111110000000000000000111100 T
b100000 -
b1000 ,
b1000 H
b100 _
b10111111110000000100000010111100 ^
b10111111110000000000000000111100 G
b10111111110000000100000010111100 X
b10111111110000000000000000111100 7
b1000 K
b1000 :
0J
0Y
14
1B
b1 h
b0 5
b0 c
b0 +
b1000 2
b10111111110000000100000010111100 U
1!
#128000
0!
#129000
b0 R
b0 S
b10110000000000000000000000100000 8
b0 )
b0 0
b0 1
b100000 _
b0 g
b10111111110000000000000001011100 T
b10110000000000000000000000100000 G
b10110000000000000000000000100000 X
b10110000000000000000000000100000 7
b10111111110000000000000000111100 \
1J
1Y
04
0B
b11 h
b10 5
b1 b
b10111111110000000000000000111100 ^
b10111111110000000000000000111100 `
b1 +
b0 &
b0 W
b10111111110000000000000000111100 U
b1000 A
b10111111110000000000000000111100 6
1!
#130000
0!
#131000
b0 T
b0 O
b0 H
b0 _
b10111111110000000000000001011100 G
b10111111110000000000000001011100 X
b10111111110000000000000001011100 7
b0 `
1e
1d
b0 :
1>
0Y
b1 i
b110 h
b1 5
b10111111110000000000000001011100 ^
b10 +
b0 2
b10111111110000000000000001011100 U
1!
#132000
0!
#133000
0d
0e
b0 G
b0 X
b0 7
b0 \
0>
1[
b0 h
b10 f
b0 ^
b11 +
1@
b0 U
1!
#134000
0!
#135000
b10111111110000000000000001011100 T
b1 O
b100000 _
b10110000000000000000000000100000 G
b10110000000000000000000000100000 X
b10110000000000000000000000100000 7
b10111111110000000000000000111100 `
b10111111110000000000000000111100 \
1Y
0[
b11 h
b0 i
b10 5
b0 f
b0 b
b1 c
b100 +
b0 Z
1!
#136000
0!
#137000
b10111111110000000000000001000000 T
b0 -
b0 ,
b100 _
b10111111110000000000000001011100 ^
b10111111110000000000000001000000 G
b10111111110000000000000001011100 X
b10111111110000000000000001000000 7
b0 K
0J
0Y
14
1B
b1 h
b0 5
b0 c
b0 +
b10111111110000000000000001011100 U
1!
#138000
0!
#139000
b10110000000000000000000000000000 8
b11111 g
b0 G
b0 7
b10111111110000000000000001000100 T
b10111111110000000000000001000000 `
b10111111110000000000000001000000 \
1J
1>
1Y
0B
b11 5
b10 b
b11 c
b10111111110000000000000001000100 ^
b10110000000000000000000000000000 X
b1001 +
b10111111110000000000000001000000 6
b0 A
b10111111110000000000000001000000 U
1!
#140000
0!
#141000
b0 O
b0 8
b0 _
b0 g
b0 T
1d
b10111111110000000000000001000100 G
b10111111110000000000000001000100 X
b10111111110000000000000001000100 7
b0 \
b101 V
0Y
1j
04
b1 i
b100 h
b1 5
b1 b
b0 c
b0 `
b10 +
b10111111110000000000000001000100 U
b0 6
1!
#142000
0!
#143000
0d
b0 \
0>
b0 V
0j
1a
b0 h
b10 f
b0 ^
b0 G
b0 X
b0 7
1F
b11 +
b0 U
0@
1!
#144000
0!
#145000
1Y
0a
b11 h
b0 i
b10 5
b0 f
b0 b
b1 c
b100 +
1!
#146000
0!
#147000
b100 G
b100 7
b100 T
b1 O
b100 _
03
b1 h
b0 5
b0 c
b101 +
1!
#148000
0!
#149000
b100 ^
0]
b100 U
1!
