test/waveforms/JAL_2.vcd
$date
	Tue Dec 15 18:20:05 2020
$end
$version
	Icarus Verilog
$end
$timescale
	10ps
$end
$scope module mips_tb $end
$scope module cpuInst $end
$var wire 1 ! clk $end
$var wire 32 " constant_1 [31:0] $end
$var wire 32 # constant_31 [31:0] $end
$var wire 32 $ constant_4 [31:0] $end
$var wire 32 % constant_reset [31:0] $end
$var wire 2 & lrmuxLSB [1:0] $end
$var wire 1 ' reset $end
$var wire 1 ( waitrequest $end
$var wire 32 ) writedata [31:0] $end
$var wire 1 * write $end
$var wire 4 + state [3:0] $end
$var wire 32 , signimm [31:0] $end
$var wire 32 - shiftimm [31:0] $end
$var wire 1 . reset_mux_cnt $end
$var wire 32 / register_v0 [31:0] $end
$var wire 32 0 regbout [31:0] $end
$var wire 32 1 regaout [31:0] $end
$var wire 32 2 readdata [31:0] $end
$var wire 1 3 read $end
$var wire 1 4 pc_write $end
$var wire 2 5 pc_src_mux [1:0] $end
$var wire 32 6 pc_out [31:0] $end
$var wire 32 7 pc_data [31:0] $end
$var wire 32 8 pc4_jump2 [31:0] $end
$var wire 3 9 msk_cnt [2:0] $end
$var wire 32 : masked_data [31:0] $end
$var wire 1 ; lrmuxMSB $end
$var wire 1 < lr_en $end
$var wire 1 = link_in $end
$var wire 1 > link_en $end
$var wire 1 ? link $end
$var wire 1 @ jump $end
$var wire 32 A irout [31:0] $end
$var wire 1 B ir_write $end
$var wire 1 C hilowrite $end
$var wire 1 D hilosel $end
$var wire 32 E hiloout [31:0] $end
$var wire 1 F halt $end
$var wire 1 G half_store_en $end
$var wire 32 H final_pc_data [31:0] $end
$var wire 32 I final_data [31:0] $end
$var wire 2 J extendcont [1:0] $end
$var wire 1 K extend_mux $end
$var wire 16 L extend_in [15:0] $end
$var wire 1 M divrst $end
$var wire 1 N divdone $end
$var wire 32 O constant_0 [31:0] $end
$var wire 2 P cond [1:0] $end
$var wire 32 Q bytehalf [31:0] $end
$var wire 4 R byteenable [3:0] $end
$var wire 1 S byte_store_en $end
$var wire 2 T byte_cnt [1:0] $end
$var wire 32 U bout [31:0] $end
$var wire 32 V bool_out [31:0] $end
$var wire 1 W bool_cnt $end
$var wire 32 X aout [31:0] $end
$var wire 32 Y aluresult [31:0] $end
$var wire 32 Z aluout [31:0] $end
$var wire 4 [ aluop [3:0] $end
$var wire 2 \ alu2out [1:0] $end
$var wire 32 ] altpcsrc [31:0] $end
$var wire 1 ^ altpcmux_cnt $end
$var wire 32 _ altpcdata [31:0] $end
$var wire 1 ` alt_pc_write $end
$var wire 32 a address [31:0] $end
$var wire 1 b active $end
$var wire 32 c WriteRegData [31:0] $end
$var wire 32 d SrcBOut [31:0] $end
$var wire 32 e SrcAOut [31:0] $end
$var wire 1 f RegWrite $end
$var wire 2 g RegDst [1:0] $end
$var wire 2 h MemToReg [1:0] $end
$var wire 1 i Jump_EN $end
$var wire 1 j JumpIN $end
$var wire 2 k IorD_cnt [1:0] $end
$var wire 5 l Dst [4:0] $end
$var wire 3 m ALUSrcB [2:0] $end
$var wire 2 n ALUSrcA [1:0] $end
$var wire 1 o ABswitch_cnt $end
$upscope $end
$upscope $end
$enddefinitions $end
#0
$dumpvars
xo
bx n
bx m
bx l
bx k
0j
0i
bx h
bx g
xf
bx e
bx d
bx c
xb
bx a
x`
bx _
x^
bx ]
bx \
bx [
bx Z
bx Y
bx X
xW
bx V
bx U
bx T
xS
bx R
bx Q
bx P
bx O
1N
xM
bx L
xK
bx J
bx I
bx H
xG
xF
bx E
xD
xC
xB
bx A
x@
x?
x>
x=
x<
x;
bx :
bx 9
bx00 8
bx 7
bx 6
bx 5
x4
x3
bx 2
bx 1
bx 0
bx /
x.
bx00 -
bx ,
bx +
x*
bx )
0(
0'
bx &
b10111111110000000000000000000000 %
b100 $
b11111 #
b1 "
0!
$end
#1000
b10110000000000000000000000000000 8
0@
0?
b0 &
b0 \
b0 Z
b0 A
b10111111110000000000000000000000 6
b0 _
1'
1!
#2000
0!
#3000
b0 )
b0 -
b10111111110000000000000000000100 7
b0 Q
b10111111110000000000000000000100 Y
b1 P
b100 d
b0 l
b0 V
b0 c
b0 L
b0 ,
b10111111110000000000000000000000 e
b0 U
b0 X
b10111111110000000000000000000000 H
b10110000000000000000000000000000 ]
b10111111110000000000000000000000 a
b1111 R
0W
0G
0S
1K
0M
0=
0>
b0 [
b0 T
b0 9
0;
0<
0D
0C
1.
1^
0`
b0 J
0o
0f
14
13
0*
0B
b1 m
b0 n
b0 5
b0 k
b0 g
b0 h
b0 O
b0 /
b0 0
b0 1
0'
0F
b1111 +
1b
1!
#4000
0!
#5000
b1111111100000000000000000011 I
b1111111100000000000000000011 :
b10111111110000000000000000000100 c
b1111111100000000000000000011 2
b1110 +
b0 E
b10111111110000000000000000000100 Z
1!
#6000
0!
#7000
b1100 -
b11 ,
b11 L
b10111111110000000000000000000100 H
b10111111110000000000000000000100 ]
0K
0.
0^
1B
b0 +
1!
#8000
0!
#9000
b10111111110000000000000000001100 8
b1100 d
b11111 l
b10111111110000000000000000010000 Y
b10111111110000000000000000001100 H
b10111111110000000000000000001100 ]
b10111111110000000000000000001100 7
b10111111110000000000000000000100 a
1K
1^
1`
04
0B
b11 m
b10 5
b10 g
b10111111110000000000000000000100 e
b1 +
b1111111100000000000000000011 A
b10111111110000000000000000000100 6
1!
#10000
0!
#11000
b0 Y
b0 P
b100100010000100000000000000011 I
b0 e
b0 d
b10000 l
1j
1i
b10111111110000000000000000010000 H
b10111111110000000000000000010000 ]
b10111111110000000000000000010000 7
b100100010000100000000000000011 :
1=
1>
0^
0`
b1 n
b0 m
b1 5
b0 g
b10111111110000000000000000010000 c
b10 +
b100100010000100000000000000011 2
b10111111110000000000000000001100 _
b10111111110000000000000000010000 Z
1!
#12000
0!
#13000
b0 l
0i
0j
b0 H
b0 ]
b0 7
b0 a
0=
0>
b10 k
b1 g
b0 c
b11 +
1@
1?
b0 Z
1!
#14000
0!
#15000
b10111111110000000000000000010000 Y
b1 P
b0 I
b1100 d
b10111111110000000000000000000100 e
b10000 l
b0 c
b10111111110000000000000000001100 H
b10111111110000000000000000001100 ]
b10111111110000000000000000001100 7
b10111111110000000000000000000100 a
b0 :
1^
b11 m
b0 n
b10 5
b0 k
b0 g
b1 h
b100 +
b0 2
1!
#16000
0!
#17000
b10111111110000000000000000001000 Y
b100100010000100000000000000011 I
b100 d
b10111111110000000000000000010000 c
b10111111110000000000000000001000 H
b10111111110000000000000000010000 ]
b10111111110000000000000000001000 7
b100100010000100000000000000011 :
0K
0^
14
1B
b1 m
b0 5
b0 h
b100100010000100000000000000011 2
b0 +
b10111111110000000000000000010000 Z
1!
#18000
0!
#19000
b10110001000010000000000000001100 8
b11111 l
b10111111110000000000000000001100 Y
b10111111110000000000000000001100 H
b10110001000010000000000000001100 ]
b10111111110000000000000000001100 7
b10111111110000000000000000001000 a
1K
1>
1^
b10 J
1f
0B
b11 5
b10 g
b10111111110000000000000000001000 c
b10111111110000000000000000001000 e
b1001 +
b10111111110000000000000000001000 6
b100100010000100000000000000011 A
b10111111110000000000000000001000 Z
1!
#20000
0!
#21000
b100100010000100000000000000100 I
b11 d
b10 l
b11 Y
1i
b10111111110000000000000000001100 ]
b10111111110000000000000000001100 a
b100100010000100000000000000100 :
0^
0f
04
b1 n
b10 m
b1 5
b0 g
b10111111110000000000000000001100 c
b0 e
b100100010000100000000000000100 2
b10 +
0?
b10111111110000000000000000001100 Z
b10111111110000000000000000001100 6
1!
#22000
0!
#23000
b0 Y
b0 P
b0 a
b10111110001000000100001 I
b0 d
0i
b10111110001000000100001 :
0>
1f
b0 m
b10 k
b11 c
b11 H
b11 ]
b11 7
b11 +
b10111110001000000100001 2
b11 Z
0@
1!
#24000
0!
#25000
b11 )
b10111111110000000000000000011000 Y
b1 P
b11 Q
b0 I
b1100 d
b10111111110000000000000000001100 e
b11 U
b11 X
b11 /
b11 0
b11 1
b10111111110000000000000000001100 a
b0 :
1^
0f
b11 m
b0 n
b10 5
b0 k
b1 h
b0 c
b10110001000010000000000000001100 H
b10110001000010000000000000001100 ]
b10110001000010000000000000001100 7
b0 2
b100 +
b11 &
b11 \
b0 Z
1!
#26000
0!
#27000
b10111111110000000000000000010000 Y
b100000010000100 -
b1000000100001 ,
b100 d
b10111111110000000000000000011000 c
b10111111110000000000000000010000 H
b10111111110000000000000000011000 ]
b10111111110000000000000000010000 7
b10111110001000000100001 I
b1000000100001 L
0K
0^
b0 J
14
1B
b1 m
b0 5
b0 h
b10111110001000000100001 :
b0 +
b10111110001000000100001 2
b10111111110000000000000000011000 Z
b0 &
b0 \
1!
#28000
0!
#29000
b10111111110000000000000000001000 )
b10111111110000000000000000001000 Q
b10111111110000000000000000001000 U
b10110001011111000100000010000100 8
b10111111110000000000000000001000 0
b100000010000100 d
b10111111110000000100000010010100 Y
b10110001011111000100000010000100 H
b10110001011111000100000010000100 ]
b10110001011111000100000010000100 7
b10111111110000000000000000010000 a
1K
1^
04
0B
b11 m
b10 5
b1 g
b10111111110000000000000000010000 c
b10111111110000000000000000010000 e
b1 +
b10111111110000000000000000010000 Z
b10111110001000000100001 A
b10111111110000000000000000010000 6
1!
#30000
0!
#31000
b10111111110000000000000000001011 Y
b10 P
b10101100000111110000000000000000 I
b10111111110000000000000000001000 d
b10111111110000000100000010010100 H
b10111111110000000100000010010100 ]
b10111111110000000100000010010100 7
b11 e
1i
b10101100000111110000000000000000 :
1>
0^
b1 n
b0 m
b1 5
b10111111110000000100000010010100 c
b10 +
b10101100000111110000000000000000 2
b10111111110000000100000010010100 Z
1!
#32000
0!
#33000
0i
b10111111110000000000000000001000 a
0>
1f
b10 k
b10111111110000000000000000001011 c
b10111111110000000000000000001011 H
b10111111110000000000000000001011 ]
b10111111110000000000000000001011 7
b11 +
b10111111110000000000000000001011 Z
1!
#34000
0!
#35000
b10111111110000000100000010010100 Y
b1 P
b10111111110000000000000000001011 X
b100000010000100 d
b10110001011111000100000010000100 H
b10110001011111000100000010000100 ]
b10110001011111000100000010000100 7
b10111111110000000000000000010000 a
b100100010000100000000000000100 I
b11111 l
b100100010000100000000000000100 c
b10111111110000000000000000001011 /
b10111111110000000000000000001011 1
b10111111110000000000000000010000 e
1^
0f
b11 m
b0 n
b10 5
b0 k
b0 g
b1 h
b100100010000100000000000000100 :
b100 +
b100100010000100000000000000100 2
b11 &
b11 \
1!
#36000
0!
#37000
b10111111110000000000000000010100 Y
b0 -
b0 ,
b10101100000111110000000000000000 I
b100 d
b10111111110000000100000010010100 c
b10111111110000000000000000010100 H
b10111111110000000100000010010100 ]
b10111111110000000000000000010100 7
b0 L
b10101100000111110000000000000000 :
0K
0^
14
1B
b1 m
b0 5
b0 h
b10101100000111110000000000000000 2
b0 +
b10111111110000000100000010010100 Z
1!
#38000
0!
#39000
b10110000011111000000000000000000 8
b0 d
b10110000011111000000000000000000 H
b10110000011111000000000000000000 7
b0 X
b10111111110000000000000000010100 Y
b0 1
b10111111110000000000000000010100 e
1K
1^
b10 J
04
0B
b11 m
b10 5
b10111111110000000000000000010100 c
b10110000011111000000000000000000 ]
b10111111110000000000000000010100 a
b1 +
b10111111110000000000000000010100 6
b10101100000111110000000000000000 A
b10111111110000000000000000010100 Z
b0 &
b0 \
1!
#40000
0!
#41000
b0 Y
b0 P
b1000 I
b0 e
1i
b10111111110000000000000000010100 H
b10111111110000000000000000010100 ]
b10111111110000000000000000010100 7
b1000 :
1>
0^
b1 n
b10 m
b1 5
b1000 2
b10 +
1!
#42000
0!
#43000
b10111111110000000000000000001000 Y
b10 P
b10111111110000000000000000001000 d
0i
b0 a
0>
03
1*
b0 m
b1 k
b0 c
b0 H
b0 ]
b0 7
b11 +
b0 Z
1!
#44000
0!
#45000
b10111111110000000000000000010100 Y
b1 P
b0 d
b10111111110000000000000000010100 e
b10111111110000000000000000010100 a
1^
13
0*
b11 m
b0 n
b10 5
b0 k
b1 h
b1000 c
b10110000011111000000000000000000 H
b10110000011111000000000000000000 ]
b10110000011111000000000000000000 7
b100 +
b10111111110000000000000000001000 Z
1!
#46000
0!
#47000
b10111111110000000000000000011000 Y
b100000 -
b1000 ,
b100 d
b10111111110000000000000000010100 c
b10111111110000000000000000011000 H
b10111111110000000000000000010100 ]
b10111111110000000000000000011000 7
b1000 L
0K
0^
b0 J
14
1B
b1 m
b0 5
b0 h
b0 +
b10111111110000000000000000010100 Z
1!
#48000
0!
#49000
b0 )
b0 Q
b0 U
b10110000000000000000000000100000 8
b0 0
b100000 d
b0 l
b10111111110000000000000000111000 Y
b10110000000000000000000000100000 H
b10110000000000000000000000100000 ]
b10110000000000000000000000100000 7
b10111111110000000000000000011000 a
1K
1^
04
0B
b11 m
b10 5
b1 g
b10111111110000000000000000011000 c
b10111111110000000000000000011000 e
b1 +
b10111111110000000000000000011000 Z
b1000 A
b10111111110000000000000000011000 6
1!
#50000
0!
#51000
b0 Y
b0 P
b0 I
b0 d
b10111111110000000000000000111000 H
b10111111110000000000000000111000 ]
b10111111110000000000000000111000 7
b0 e
1j
1i
b0 :
1>
0^
b1 n
b110 m
b1 5
b10111111110000000000000000111000 c
b10 +
b0 2
b10111111110000000000000000111000 Z
1!
#52000
0!
#53000
0i
0j
b0 H
b0 ]
b0 7
b0 a
0>
1`
b0 m
b10 k
b0 c
b11 +
1@
b0 Z
1!
#54000
0!
#55000
b10111111110000000000000000001000 c
b10111111110000000000000000111000 Y
b1 P
b10111111110000000000000000001000 I
b100000 d
b10111111110000000000000000011000 e
b10110000000000000000000000100000 H
b10110000000000000000000000100000 ]
b10110000000000000000000000100000 7
b10111111110000000000000000011000 a
b10111111110000000000000000001000 :
1^
0`
b11 m
b0 n
b10 5
b0 k
b0 g
b1 h
b100 +
b10111111110000000000000000001000 2
b0 _
1!
#56000
0!
#57000
b0 -
b10111111110000000000000000011100 Y
b0 ,
b0 L
b0 I
b100 d
b10111111110000000000000000111000 c
b10111111110000000000000000011100 H
b10111111110000000000000000111000 ]
b10111111110000000000000000011100 7
b0 :
0K
0^
14
1B
b1 m
b0 5
b0 h
b0 2
b0 +
b10111111110000000000000000111000 Z
1!
#58000
0!
#59000
b10110000000000000000000000000000 8
b11111 l
b0 H
b0 7
b10111111110000000000000000100000 Y
b10111111110000000000000000011100 e
b10111111110000000000000000011100 a
1K
1>
1^
0B
b11 5
b10 g
b10111111110000000000000000011100 c
b10110000000000000000000000000000 ]
b1001 +
b10111111110000000000000000011100 6
b0 A
b10111111110000000000000000011100 Z
1!
#60000
0!
#61000
b0 P
b0 8
b0 d
b0 l
b0 Y
1i
b10111111110000000000000000100000 H
b10111111110000000000000000100000 ]
b10111111110000000000000000100000 7
b0 a
b101 [
0^
1o
04
b1 n
b100 m
b1 5
b1 g
b10111111110000000000000000100000 c
b0 e
b10 +
b10111111110000000000000000100000 Z
b0 6
1!
#62000
0!
#63000
b10111111110000000000000000001000 I
0i
b0 H
b0 ]
b0 7
b0 a
b10111111110000000000000000001000 :
0>
b0 [
0o
1f
b0 m
b10 k
b0 c
1F
b11 +
b10111111110000000000000000001000 2
b0 Z
0@
1!
#64000
0!
#65000
b10111111110000000000000000001000 c
1^
0f
b11 m
b0 n
b10 5
b0 k
b0 g
b1 h
b100 +
1!
#66000
0!
#67000
b100 H
b100 7
b100 Y
b1 P
b100 d
b0 c
03
b1 m
b0 5
b0 h
b101 +
1!
#68000
0!
#69000
b100 c
0b
b100 Z
1!
