test/waveforms/LB_3.vcd
$date
	Tue Dec 15 09:20:40 2020
$end
$version
	Icarus Verilog
$end
$timescale
	10ps
$end
$scope module mips_tb $end
$scope module cpuInst $end
$var wire 1 ! clk $end
$var wire 32 " constant_1 [31:0] $end
$var wire 32 # constant_31 [31:0] $end
$var wire 32 $ constant_4 [31:0] $end
$var wire 32 % constant_reset [31:0] $end
$var wire 2 & lrmuxLSB [1:0] $end
$var wire 1 ' reset $end
$var wire 1 ( rst $end
$var wire 1 ) waitrequest $end
$var wire 32 * writedata [31:0] $end
$var wire 1 + write $end
$var wire 4 , state [3:0] $end
$var wire 32 - signimm [31:0] $end
$var wire 32 . shiftimm [31:0] $end
$var wire 1 / reset_mux_cnt $end
$var wire 32 0 register_v0 [31:0] $end
$var wire 32 1 regbout [31:0] $end
$var wire 32 2 regaout [31:0] $end
$var wire 32 3 readdata [31:0] $end
$var wire 1 4 read $end
$var wire 1 5 pc_write $end
$var wire 2 6 pc_src_mux [1:0] $end
$var wire 32 7 pc_out [31:0] $end
$var wire 32 8 pc_data [31:0] $end
$var wire 32 9 pc4_jump2 [31:0] $end
$var wire 3 : msk_cnt [2:0] $end
$var wire 32 ; masked_data [31:0] $end
$var wire 1 < lrmuxMSB $end
$var wire 1 = lr_en $end
$var wire 5 > linkadr [4:0] $end
$var wire 1 ? link_in $end
$var wire 1 @ link_en $end
$var wire 1 A link $end
$var wire 1 B jump $end
$var wire 32 C irout [31:0] $end
$var wire 1 D ir_write $end
$var wire 1 E hilowrite $end
$var wire 1 F hilosel $end
$var wire 32 G hiloout [31:0] $end
$var wire 1 H halt $end
$var wire 1 I half_store_en $end
$var wire 5 J finallinkadr [4:0] $end
$var wire 32 K final_pc_data [31:0] $end
$var wire 32 L final_data [31:0] $end
$var wire 2 M extendcont [1:0] $end
$var wire 1 N extend_mux $end
$var wire 16 O extend_in [15:0] $end
$var wire 1 P divrst $end
$var wire 1 Q divdone $end
$var wire 32 R constant_0 [31:0] $end
$var wire 2 S cond [1:0] $end
$var wire 32 T bytehalf [31:0] $end
$var wire 4 U byteenable [3:0] $end
$var wire 1 V byte_store_en $end
$var wire 2 W byte_cnt [1:0] $end
$var wire 32 X bout [31:0] $end
$var wire 32 Y bool_out [31:0] $end
$var wire 1 Z bool_cnt $end
$var wire 32 [ aout [31:0] $end
$var wire 32 \ aluresult [31:0] $end
$var wire 32 ] aluout [31:0] $end
$var wire 4 ^ aluop [3:0] $end
$var wire 2 _ alu2out [1:0] $end
$var wire 32 ` altpcsrc [31:0] $end
$var wire 1 a altpcmux_cnt $end
$var wire 32 b altpcdata [31:0] $end
$var wire 1 c altlink $end
$var wire 1 d alt_pc_write $end
$var wire 1 e alt_link_reg_en $end
$var wire 32 f address [31:0] $end
$var wire 1 g active $end
$var wire 32 h WriteRegData [31:0] $end
$var wire 32 i SrcBOut [31:0] $end
$var wire 32 j SrcAOut [31:0] $end
$var wire 1 k RegWrite $end
$var wire 2 l RegDst [1:0] $end
$var wire 2 m MemToReg [1:0] $end
$var wire 1 n Jump_EN $end
$var wire 1 o JumpIN $end
$var wire 2 p IorD_cnt [1:0] $end
$var wire 5 q Dst [4:0] $end
$var wire 3 r ALUSrcB [2:0] $end
$var wire 2 s ALUSrcA [1:0] $end
$var wire 1 t ABswitch_cnt $end
$upscope $end
$upscope $end
$enddefinitions $end
#0
$dumpvars
xt
bx s
bx r
bx q
bx p
0o
0n
bx m
bx l
xk
bx j
bx i
bx h
xg
bx f
xe
xd
xc
bx b
xa
bx `
bx _
bx ^
bx ]
bx \
bx [
xZ
bx Y
bx X
bx W
xV
bx U
bx T
bx S
bx R
1Q
xP
bx O
xN
bx M
bx L
bx K
bx J
xI
xH
bx G
xF
xE
xD
bx C
xB
xA
x@
x?
bx >
x=
x<
bx ;
bx :
bx00 9
bx 8
bx 7
bx 6
x5
x4
bx 3
bx 2
bx 1
bx 0
x/
bx00 .
bx -
bx ,
x+
bx *
0)
z(
0'
bx &
b10111111110000000000000000000000 %
b100 $
b11111 #
b1 "
0!
$end
#1000
b10110000000000000000000000000000 9
0B
0A
b0 &
b0 _
b0 ]
b0 C
b10111111110000000000000000000000 7
b0 b
1'
1!
#2000
0!
#3000
b0 *
b0 .
b10111111110000000000000000000100 8
b0 T
b10111111110000000000000000000100 \
b1 S
b100 i
b11111 >
b0 q
b0 Y
b0 h
b0 O
b0 -
b10111111110000000000000000000000 j
b0 X
b0 [
b10111111110000000000000000000000 K
b10110000000000000000000000000000 `
b10111111110000000000000000000000 f
b1111 U
0c
0e
0Z
0I
0V
1N
0P
0?
0@
b0 ^
b0 W
b0 :
0<
0=
0F
0E
1/
1a
0d
b0 M
0t
0k
15
14
0+
0D
b1 r
b0 s
b0 6
b0 p
b0 l
b0 m
b0 R
b0 0
b0 1
b0 2
0'
0H
b1111 ,
1g
1!
#4000
0!
#5000
b10000000000000100000000000001000 L
b10000000000000100000000000001000 ;
b10111111110000000000000000000100 h
b10000000000000100000000000001000 3
b1110 ,
b0 G
b10111111110000000000000000000100 ]
1!
#6000
0!
#7000
b100000 .
b1000 -
b1000 O
b10111111110000000000000000000100 K
b10111111110000000000000000000100 `
0N
0/
0a
1D
b0 ,
1!
#8000
0!
#9000
b10110000000010000000000000100000 9
b10 q
b100000 i
b10111111110000000000000000100100 \
b10110000000010000000000000100000 K
b10110000000010000000000000100000 `
b10110000000010000000000000100000 8
b10111111110000000000000000000100 f
1N
1a
b10 M
05
0D
b11 r
b10 6
b10111111110000000000000000000100 j
b1 ,
b10000000000000100000000000001000 C
b10111111110000000000000000000100 7
1!
#10000
0!
#11000
b1000 \
b10101100100000100000000000000000 L
b0 j
b1000 i
1n
b10111111110000000000000000100100 K
b10111111110000000000000000100100 `
b10111111110000000000000000100100 8
b10101100100000100000000000000000 ;
1@
0a
b1 s
b10 r
b1 6
b10111111110000000000000000100100 h
b10 ,
b10101100100000100000000000000000 3
b10111111110000000000000000100100 ]
1!
#12000
0!
#13000
b0 \
b0 S
b0 i
0n
b1000 K
b1000 `
b1000 8
b1000 f
1e
0@
b0 r
b10 p
b1000 h
b11 ,
b1000 ]
1!
#14000
0!
#15000
b10111111110000000000000000100100 \
b1 S
b11111111111111111111111111111111 L
b100000 i
b10111111110000000000000000000100 j
b10110000000010000000000000100000 K
b10110000000010000000000000100000 `
b10110000000010000000000000100000 8
b10111111110000000000000000000100 f
b11111111111111111111111111111111 ;
0e
b11 :
1a
1k
b11 r
b0 s
b10 6
b0 p
b1 m
b11111111111111111111111111111111 h
b11111 J
b100 ,
b11111111111111111111111111111111 3
b0 ]
1!
#16000
0!
#17000
b11111111111111111111111111111111 *
b0 .
b0 -
b10111111110000000000000000001000 \
b11111111111111111111111111111111 T
b10101100100000100000000000000000 L
b100 i
b10111111110000000000000000100100 h
b0 O
b11111111111111111111111111111111 X
b10111111110000000000000000001000 K
b10111111110000000000000000100100 `
b10111111110000000000000000001000 8
b10101100100000100000000000000000 ;
0N
b0 :
0a
b0 M
0k
15
1D
b1 r
b0 6
b0 m
b11111111111111111111111111111111 0
b11111111111111111111111111111111 1
b10101100100000100000000000000000 3
b0 ,
b10111111110000000000000000100100 ]
1!
#18000
0!
#19000
b10110010000010000000000000000000 9
b0 i
b10111111110000000000000000001000 \
b10110010000010000000000000000000 K
b10110010000010000000000000000000 `
b10110010000010000000000000000000 8
b10111111110000000000000000001000 f
1N
1a
b10 M
05
0D
b11 r
b10 6
b10111111110000000000000000001000 h
b10111111110000000000000000001000 j
b1 ,
b10111111110000000000000000001000 7
b10101100100000100000000000000000 C
b10111111110000000000000000001000 ]
1!
#20000
0!
#21000
b0 \
b0 S
b10000000000000100000000000001001 L
b0 j
1n
b10111111110000000000000000001000 K
b10111111110000000000000000001000 `
b10111111110000000000000000001000 8
b10000000000000100000000000001001 ;
1@
0a
b1 s
b10 r
b1 6
b10000000000000100000000000001001 3
b10 ,
1!
#22000
0!
#23000
b11111111111111111111111111111111 \
b10 S
b11111111111111111111111111111111 i
0n
b0 f
1e
0@
04
1+
b0 r
b1 p
b0 h
b0 K
b0 `
b0 8
b11 ,
b0 ]
1!
#24000
0!
#25000
b10111111110000000000000000001000 \
b1 S
b0 i
b10111111110000000000000000001000 j
b10111111110000000000000000001000 f
0e
1a
14
0+
b11 r
b0 s
b10 6
b0 p
b1 m
b10000000000000100000000000001001 h
b10110010000010000000000000000000 K
b10110010000010000000000000000000 `
b10110010000010000000000000000000 8
b100 ,
b11111111111111111111111111111111 ]
1!
#26000
0!
#27000
b10111111110000000000000000001100 \
b100100 .
b1001 -
b100 i
b10111111110000000000000000001000 h
b10111111110000000000000000001100 K
b10111111110000000000000000001000 `
b10111111110000000000000000001100 8
b1001 O
0N
0a
b0 M
15
1D
b1 r
b0 6
b0 m
b0 ,
b10111111110000000000000000001000 ]
b11 &
b11 _
1!
#28000
0!
#29000
b10110000000010000000000000100100 9
b100100 i
b10111111110000000000000000110000 \
b10110000000010000000000000100100 K
b10110000000010000000000000100100 `
b10110000000010000000000000100100 8
b10111111110000000000000000001100 f
1N
1a
b10 M
05
0D
b11 r
b10 6
b10111111110000000000000000001100 h
b10111111110000000000000000001100 j
b1 ,
b0 &
b0 _
b10111111110000000000000000001100 ]
b10000000000000100000000000001001 C
b10111111110000000000000000001100 7
1!
#30000
0!
#31000
b1001 \
b10101100100000100000000000000100 L
b1001 i
b10111111110000000000000000110000 K
b10111111110000000000000000110000 `
b10111111110000000000000000110000 8
b0 j
1n
b10101100100000100000000000000100 ;
1@
0a
b1 s
b10 r
b1 6
b10111111110000000000000000110000 h
b10 ,
b10101100100000100000000000000100 3
b10111111110000000000000000110000 ]
1!
#32000
0!
#33000
b11111111111111111111111111111111 \
b10 S
b11111111111111111111111111111111 i
0n
b1000 f
1e
0@
b0 r
b10 p
b1001 h
b1001 K
b1001 `
b1001 8
b11 ,
b1001 ]
1!
#34000
0!
#35000
b10111111110000000000000000110000 \
b1 S
b100100 i
b10111111110000000000000000001100 f
b11111111111111111111111111111111 L
b10111111110000000000000000001100 j
0e
b11 :
1a
1k
b11 r
b0 s
b10 6
b0 p
b1 m
b11111111111111111111111111111111 h
b10110000000010000000000000100100 K
b10110000000010000000000000100100 `
b10110000000010000000000000100100 8
b11111111111111111111111111111111 ;
b100 ,
b11111111111111111111111111111111 3
b11111111111111111111111111111111 ]
b1 &
b1 _
1!
#36000
0!
#37000
b10111111110000000000000000010000 \
b10000 .
b100 -
b10101100100000100000000000000100 L
b100 i
b10111111110000000000000000110000 h
b10111111110000000000000000010000 K
b10111111110000000000000000110000 `
b10111111110000000000000000010000 8
b100 O
b10101100100000100000000000000100 ;
0N
b0 :
0a
b0 M
0k
15
1D
b1 r
b0 6
b0 m
b10101100100000100000000000000100 3
b0 ,
b11 &
b11 _
b10111111110000000000000000110000 ]
1!
#38000
0!
#39000
b10110010000010000000000000010000 9
b10000 i
b10110010000010000000000000010000 K
b10110010000010000000000000010000 8
b10111111110000000000000000100000 \
b10111111110000000000000000010000 j
1N
1a
b10 M
05
0D
b11 r
b10 6
b10111111110000000000000000010000 h
b10110010000010000000000000010000 `
b10111111110000000000000000010000 f
b1 ,
b10111111110000000000000000010000 7
b10101100100000100000000000000100 C
b10111111110000000000000000010000 ]
b0 &
b0 _
1!
#40000
0!
#41000
b100 \
b10000000000000100000000000001010 L
b100 i
b10111111110000000000000000100000 K
b10111111110000000000000000100000 `
b10111111110000000000000000100000 8
b0 j
1n
b10000000000000100000000000001010 ;
1@
0a
b1 s
b10 r
b1 6
b10111111110000000000000000100000 h
b10000000000000100000000000001010 3
b10 ,
b10111111110000000000000000100000 ]
1!
#42000
0!
#43000
b11111111111111111111111111111111 \
b10 S
b11111111111111111111111111111111 i
0n
b100 f
1e
0@
04
1+
b0 r
b1 p
b100 h
b100 K
b100 `
b100 8
b11 ,
b100 ]
1!
#44000
0!
#45000
b10111111110000000000000000100000 \
b1 S
b10000 i
b10111111110000000000000000010000 j
b10111111110000000000000000010000 f
0e
1a
14
0+
b11 r
b0 s
b10 6
b0 p
b1 m
b10000000000000100000000000001010 h
b10110010000010000000000000010000 K
b10110010000010000000000000010000 `
b10110010000010000000000000010000 8
b100 ,
b11111111111111111111111111111111 ]
1!
#46000
0!
#47000
b10111111110000000000000000010100 \
b101000 .
b1010 -
b100 i
b10111111110000000000000000100000 h
b10111111110000000000000000010100 K
b10111111110000000000000000100000 `
b10111111110000000000000000010100 8
b1010 O
0N
0a
b0 M
15
1D
b1 r
b0 6
b0 m
b0 ,
b10111111110000000000000000100000 ]
b11 &
b11 _
1!
#48000
0!
#49000
b10110000000010000000000000101000 9
b101000 i
b10111111110000000000000000111100 \
b10110000000010000000000000101000 K
b10110000000010000000000000101000 `
b10110000000010000000000000101000 8
b10111111110000000000000000010100 f
1N
1a
b10 M
05
0D
b11 r
b10 6
b10111111110000000000000000010100 h
b10111111110000000000000000010100 j
b1 ,
b0 &
b0 _
b10111111110000000000000000010100 ]
b10000000000000100000000000001010 C
b10111111110000000000000000010100 7
1!
#50000
0!
#51000
b1010 \
b10101100100000100000000000001000 L
b1010 i
b10111111110000000000000000111100 K
b10111111110000000000000000111100 `
b10111111110000000000000000111100 8
b0 j
1n
b10101100100000100000000000001000 ;
1@
0a
b1 s
b10 r
b1 6
b10111111110000000000000000111100 h
b10 ,
b10101100100000100000000000001000 3
b10111111110000000000000000111100 ]
1!
#52000
0!
#53000
b11111111111111111111111111111111 \
b10 S
b11111111111111111111111111111111 i
0n
b1000 f
1e
0@
b0 r
b10 p
b1010 h
b1010 K
b1010 `
b1010 8
b11 ,
b1010 ]
1!
#54000
0!
#55000
b10111111110000000000000000111100 \
b1 S
b101000 i
b10111111110000000000000000010100 f
b11111111111111111111111111111111 L
b10111111110000000000000000010100 j
0e
b11 :
1a
1k
b11 r
b0 s
b10 6
b0 p
b1 m
b11111111111111111111111111111111 h
b10110000000010000000000000101000 K
b10110000000010000000000000101000 `
b10110000000010000000000000101000 8
b11111111111111111111111111111111 ;
b100 ,
b11111111111111111111111111111111 3
b11111111111111111111111111111111 ]
b10 &
b10 _
1!
#56000
0!
#57000
b10111111110000000000000000011000 \
b100000 .
b1000 -
b10101100100000100000000000001000 L
b100 i
b10111111110000000000000000111100 h
b10111111110000000000000000011000 K
b10111111110000000000000000111100 `
b10111111110000000000000000011000 8
b1000 O
b10101100100000100000000000001000 ;
0N
b0 :
0a
b0 M
0k
15
1D
b1 r
b0 6
b0 m
b10101100100000100000000000001000 3
b0 ,
b11 &
b11 _
b10111111110000000000000000111100 ]
1!
#58000
0!
#59000
b10110010000010000000000000100000 9
b100000 i
b10110010000010000000000000100000 K
b10110010000010000000000000100000 8
b10111111110000000000000000111000 \
b10111111110000000000000000011000 j
1N
1a
b10 M
05
0D
b11 r
b10 6
b10111111110000000000000000011000 h
b10110010000010000000000000100000 `
b10111111110000000000000000011000 f
b1 ,
b10111111110000000000000000011000 7
b10101100100000100000000000001000 C
b10111111110000000000000000011000 ]
b0 &
b0 _
1!
#60000
0!
#61000
b1000 \
b10000000000000100000000000001011 L
b1000 i
b10111111110000000000000000111000 K
b10111111110000000000000000111000 `
b10111111110000000000000000111000 8
b0 j
1n
b10000000000000100000000000001011 ;
1@
0a
b1 s
b10 r
b1 6
b10111111110000000000000000111000 h
b10000000000000100000000000001011 3
b10 ,
b10111111110000000000000000111000 ]
1!
#62000
0!
#63000
b11111111111111111111111111111111 \
b10 S
b11111111111111111111111111111111 i
0n
b1000 f
1e
0@
04
1+
b0 r
b1 p
b1000 h
b1000 K
b1000 `
b1000 8
b11 ,
b1000 ]
1!
#64000
0!
#65000
b10111111110000000000000000111000 \
b1 S
b100000 i
b10111111110000000000000000011000 j
b10111111110000000000000000011000 f
0e
1a
14
0+
b11 r
b0 s
b10 6
b0 p
b1 m
b10000000000000100000000000001011 h
b10110010000010000000000000100000 K
b10110010000010000000000000100000 `
b10110010000010000000000000100000 8
b100 ,
b11111111111111111111111111111111 ]
1!
#66000
0!
#67000
b10111111110000000000000000011100 \
b101100 .
b1011 -
b100 i
b10111111110000000000000000111000 h
b10111111110000000000000000011100 K
b10111111110000000000000000111000 `
b10111111110000000000000000011100 8
b1011 O
0N
0a
b0 M
15
1D
b1 r
b0 6
b0 m
b0 ,
b10111111110000000000000000111000 ]
b11 &
b11 _
1!
#68000
0!
#69000
b10110000000010000000000000101100 9
b101100 i
b10111111110000000000000001001000 \
b10110000000010000000000000101100 K
b10110000000010000000000000101100 `
b10110000000010000000000000101100 8
b10111111110000000000000000011100 f
1N
1a
b10 M
05
0D
b11 r
b10 6
b10111111110000000000000000011100 h
b10111111110000000000000000011100 j
b1 ,
b0 &
b0 _
b10111111110000000000000000011100 ]
b10000000000000100000000000001011 C
b10111111110000000000000000011100 7
1!
#70000
0!
#71000
b1011 \
b10101100100000100000000000001100 L
b1011 i
b10111111110000000000000001001000 K
b10111111110000000000000001001000 `
b10111111110000000000000001001000 8
b0 j
1n
b10101100100000100000000000001100 ;
1@
0a
b1 s
b10 r
b1 6
b10111111110000000000000001001000 h
b10 ,
b10101100100000100000000000001100 3
b10111111110000000000000001001000 ]
1!
#72000
0!
#73000
b11111111111111111111111111111111 \
b10 S
b11111111111111111111111111111111 i
0n
b1000 f
1e
0@
b0 r
b10 p
b1011 h
b1011 K
b1011 `
b1011 8
b11 ,
b1011 ]
1!
#74000
0!
#75000
b10111111110000000000000001001000 \
b1 S
b101100 i
b10111111110000000000000000011100 f
b11111111111111111111111111111111 L
b10111111110000000000000000011100 j
0e
b11 :
1a
1k
b11 r
b0 s
b10 6
b0 p
b1 m
b11111111111111111111111111111111 h
b10110000000010000000000000101100 K
b10110000000010000000000000101100 `
b10110000000010000000000000101100 8
b11111111111111111111111111111111 ;
b100 ,
b11111111111111111111111111111111 3
b11111111111111111111111111111111 ]
b11 &
b11 _
1!
#76000
0!
#77000
b10111111110000000000000000100000 \
b110000 .
b1100 -
b10101100100000100000000000001100 L
b100 i
b10111111110000000000000001001000 h
b10111111110000000000000000100000 K
b10111111110000000000000001001000 `
b10111111110000000000000000100000 8
b1100 O
b10101100100000100000000000001100 ;
0N
b0 :
0a
b0 M
0k
15
1D
b1 r
b0 6
b0 m
b10101100100000100000000000001100 3
b0 ,
b10111111110000000000000001001000 ]
1!
#78000
0!
#79000
b10110010000010000000000000110000 9
b110000 i
b10110010000010000000000000110000 K
b10110010000010000000000000110000 8
b10111111110000000000000001010000 \
b10111111110000000000000000100000 j
1N
1a
b10 M
05
0D
b11 r
b10 6
b10111111110000000000000000100000 h
b10110010000010000000000000110000 `
b10111111110000000000000000100000 f
b1 ,
b10111111110000000000000000100000 7
b10101100100000100000000000001100 C
b10111111110000000000000000100000 ]
b0 &
b0 _
1!
#80000
0!
#81000
b1100 \
b1000 L
b1100 i
b10111111110000000000000001010000 K
b10111111110000000000000001010000 `
b10111111110000000000000001010000 8
b0 j
1n
b1000 ;
1@
0a
b1 s
b10 r
b1 6
b10111111110000000000000001010000 h
b1000 3
b10 ,
b10111111110000000000000001010000 ]
1!
#82000
0!
#83000
b11111111111111111111111111111111 \
b10 S
b11111111111111111111111111111111 i
0n
b1100 f
1e
0@
04
1+
b0 r
b1 p
b1100 h
b1100 K
b1100 `
b1100 8
b11 ,
b1100 ]
1!
#84000
0!
#85000
b10111111110000000000000001010000 \
b1 S
b110000 i
b10111111110000000000000000100000 j
b10111111110000000000000000100000 f
0e
1a
14
0+
b11 r
b0 s
b10 6
b0 p
b1 m
b1000 h
b10110010000010000000000000110000 K
b10110010000010000000000000110000 `
b10110010000010000000000000110000 8
b100 ,
b11111111111111111111111111111111 ]
1!
#86000
0!
#87000
b10111111110000000000000000100100 \
b100000 .
b1000 -
b100 i
b10111111110000000000000001010000 h
b10111111110000000000000000100100 K
b10111111110000000000000001010000 `
b10111111110000000000000000100100 8
b1000 O
0N
0a
b0 M
15
1D
b1 r
b0 6
b0 m
b0 ,
b10111111110000000000000001010000 ]
b11 &
b11 _
1!
#88000
0!
#89000
b0 *
b0 T
b0 X
b10110000000000000000000000100000 9
b0 1
b100000 i
b0 q
b10111111110000000000000001000100 \
b10110000000000000000000000100000 K
b10110000000000000000000000100000 `
b10110000000000000000000000100000 8
b10111111110000000000000000100100 f
1N
1a
05
0D
b11 r
b10 6
b1 l
b10111111110000000000000000100100 h
b10111111110000000000000000100100 j
b1 ,
b0 &
b0 _
b10111111110000000000000000100100 ]
b1000 C
b10111111110000000000000000100100 7
1!
#90000
0!
#91000
b0 \
b0 S
b0 L
b0 i
b10111111110000000000000001000100 K
b10111111110000000000000001000100 `
b10111111110000000000000001000100 8
b0 j
1o
1n
b0 ;
1@
0a
b1 s
b110 r
b1 6
b10111111110000000000000001000100 h
b10 ,
b0 3
b10111111110000000000000001000100 ]
1!
#92000
0!
#93000
0n
0o
b0 K
b0 `
b0 8
b0 f
1e
0@
1d
b0 r
b10 p
b0 h
b11 ,
1B
b0 ]
1!
#94000
0!
#95000
b11111111111111111111111111111111 h
b10111111110000000000000001000100 \
b1 S
b11111111111111111111111111111111 L
b100000 i
b10111111110000000000000000100100 j
b10110000000000000000000000100000 K
b10110000000000000000000000100000 `
b10110000000000000000000000100000 8
b10111111110000000000000000100100 f
b11111111111111111111111111111111 ;
0e
1a
0d
b11 r
b0 s
b10 6
b0 p
b0 l
b1 m
b100 ,
b11111111111111111111111111111111 3
1!
#96000
0!
#97000
b10111111110000000000000000101000 \
b0 .
b0 -
b0 L
b100 i
b10111111110000000000000001000100 h
b10111111110000000000000000101000 K
b10111111110000000000000001000100 `
b10111111110000000000000000101000 8
b0 O
b0 ;
0N
0a
15
1D
b1 r
b0 6
b0 m
b0 3
b0 ,
b10111111110000000000000001000100 ]
1!
#98000
0!
#99000
b10110000000000000000000000000000 9
b11111 q
b0 K
b0 8
b10111111110000000000000000101100 \
b10111111110000000000000000101000 j
b10111111110000000000000000101000 f
1N
1@
1a
0D
b11 6
b10 l
b10111111110000000000000000101000 h
b10110000000000000000000000000000 `
b1001 ,
b10111111110000000000000000101000 7
b0 C
b10111111110000000000000000101000 ]
1!
#100000
0!
#101000
b0 S
b0 9
b0 i
b0 q
b0 \
1n
b10111111110000000000000000101100 K
b10111111110000000000000000101100 `
b10111111110000000000000000101100 8
b0 f
b101 ^
0a
1t
05
b1 s
b100 r
b1 6
b1 l
b10111111110000000000000000101100 h
b0 j
b10 ,
b10111111110000000000000000101100 ]
b0 7
1!
#102000
0!
#103000
b11111111111111111111111111111111 L
0n
b0 K
b0 `
b0 8
b0 f
b11111111111111111111111111111111 ;
1e
0@
b0 ^
0t
1k
b0 r
b10 p
b0 h
1H
b11 ,
b11111111111111111111111111111111 3
b0 ]
0B
1!
#104000
0!
#105000
b11111111111111111111111111111111 h
0e
1a
0k
b11 r
b0 s
b10 6
b0 p
b0 l
b1 m
b100 ,
1!
#106000
0!
#107000
b100 K
b100 8
b100 \
b1 S
b100 i
b0 h
04
b1 r
b0 6
b0 m
b101 ,
1!
#108000
0!
#109000
b100 h
0g
b100 ]
1!
