test/waveforms/SLTU.vcd
$date
	Mon Dec 14 10:37:12 2020
$end
$version
	Icarus Verilog
$end
$timescale
	10ps
$end
$scope module mips_tb $end
$scope module cpuInst $end
$var wire 1 ! clk $end
$var wire 32 " constant_1 [31:0] $end
$var wire 32 # constant_31 [31:0] $end
$var wire 32 $ constant_4 [31:0] $end
$var wire 32 % constant_reset [31:0] $end
$var wire 2 & lrmuxLSB [1:0] $end
$var wire 1 ' reset $end
$var wire 1 ( waitrequest $end
$var wire 32 ) writedata [31:0] $end
$var wire 1 * write $end
$var wire 4 + state [3:0] $end
$var wire 32 , signimm [31:0] $end
$var wire 32 - shiftimm [31:0] $end
$var wire 1 . reset_mux_cnt $end
$var wire 32 / register_v0 [31:0] $end
$var wire 32 0 regbout [31:0] $end
$var wire 32 1 regaout [31:0] $end
$var wire 32 2 readdata [31:0] $end
$var wire 1 3 read $end
$var wire 1 4 pc_write $end
$var wire 2 5 pc_src_mux [1:0] $end
$var wire 32 6 pc_out [31:0] $end
$var wire 32 7 pc_data [31:0] $end
$var wire 32 8 pc4_jump2 [31:0] $end
$var wire 3 9 msk_cnt [2:0] $end
$var wire 32 : masked_data [31:0] $end
$var wire 1 ; lrmuxMSB $end
$var wire 1 < lr_en $end
$var wire 1 = link_in $end
$var wire 1 > link_en $end
$var wire 1 ? link $end
$var wire 1 @ jump $end
$var wire 32 A irout [31:0] $end
$var wire 1 B ir_write $end
$var wire 1 C hilowrite $end
$var wire 1 D hilosel $end
$var wire 32 E hiloout [31:0] $end
$var wire 1 F halt $end
$var wire 32 G final_pc_data [31:0] $end
$var wire 32 H final_data [31:0] $end
$var wire 2 I extendcont [1:0] $end
$var wire 1 J extend_mux $end
$var wire 16 K extend_in [15:0] $end
$var wire 1 L divrst $end
$var wire 1 M divdone $end
$var wire 32 N constant_0 [31:0] $end
$var wire 2 O cond [1:0] $end
$var wire 4 P byteenable [3:0] $end
$var wire 2 Q byte_cnt [1:0] $end
$var wire 32 R bout [31:0] $end
$var wire 32 S aout [31:0] $end
$var wire 32 T aluresult [31:0] $end
$var wire 32 U aluout [31:0] $end
$var wire 4 V aluop [3:0] $end
$var wire 2 W alu2out [1:0] $end
$var wire 32 X altpcsrc [31:0] $end
$var wire 1 Y altpcmux_cnt $end
$var wire 32 Z altpcdata [31:0] $end
$var wire 1 [ alt_pc_write $end
$var wire 32 \ address [31:0] $end
$var wire 1 ] active $end
$var wire 32 ^ WriteRegData [31:0] $end
$var wire 32 _ SrcBOut [31:0] $end
$var wire 32 ` SrcAOut [31:0] $end
$var wire 1 a RegWrite $end
$var wire 2 b RegDst [1:0] $end
$var wire 2 c MemToReg [1:0] $end
$var wire 1 d Jump_EN $end
$var wire 1 e JumpIN $end
$var wire 2 f IorD_cnt [1:0] $end
$var wire 5 g Dst [4:0] $end
$var wire 3 h ALUSrcB [2:0] $end
$var wire 2 i ALUSrcA [1:0] $end
$var wire 1 j ABswitch_cnt $end
$upscope $end
$upscope $end
$enddefinitions $end
#0
$dumpvars
xj
bx i
bx h
bx g
bx f
0e
0d
bx c
bx b
xa
bx `
bx _
bx ^
x]
bx \
x[
bx Z
xY
bx X
bx W
bx V
bx U
bx T
bx S
bx R
bx Q
bx P
bx O
bx N
1M
xL
bx K
xJ
bx I
bx H
bx G
xF
bx E
xD
xC
xB
bx A
x@
x?
x>
x=
x<
x;
bx :
bx 9
bx00 8
bx 7
bx 6
bx 5
x4
x3
bx 2
bx 1
bx 0
bx /
x.
bx00 -
bx ,
bx +
x*
bx )
0(
0'
bx &
b10111111110000000000000000000000 %
b100 $
b11111 #
b1 "
0!
$end
#1000
b10110000000000000000000000000000 8
0@
0?
b0 &
b0 W
b0 U
b0 A
b10111111110000000000000000000000 6
b0 Z
1'
1!
#2000
0!
#3000
b0 -
b10111111110000000000000000000100 7
b10111111110000000000000000000100 T
b1 O
b100 _
b0 g
b0 ^
b0 K
b0 ,
b10111111110000000000000000000000 `
b0 R
b0 S
b10111111110000000000000000000000 G
b10110000000000000000000000000000 X
b10111111110000000000000000000000 \
b1111 P
1J
0L
0=
0>
b0 V
b0 Q
b0 9
0;
0<
0D
0C
1.
1Y
0[
b0 I
0j
0a
14
13
0*
0B
b1 h
b0 i
b0 5
b0 f
b0 b
b0 c
b0 N
b0 /
b0 )
b0 0
b0 1
0'
0F
b1111 +
1]
1!
#4000
0!
#5000
b100100000000110000000000000000 H
b100100000000110000000000000000 :
b10111111110000000000000000000100 ^
b100100000000110000000000000000 2
b1110 +
b0 E
b10111111110000000000000000000100 U
1!
#6000
0!
#7000
b10111111110000000000000000000100 G
b10111111110000000000000000000100 X
0J
0.
0Y
1B
b0 +
1!
#8000
0!
#9000
b10110000000011000000000000000000 8
b11 g
b0 _
b10111111110000000000000000000100 T
b10110000000011000000000000000000 G
b10110000000011000000000000000000 X
b10110000000011000000000000000000 7
b10111111110000000000000000000100 \
1J
1Y
b10 I
04
0B
b11 h
b10 5
b10111111110000000000000000000100 `
b1 +
b100100000000110000000000000000 A
b10111111110000000000000000000100 6
1!
#10000
0!
#11000
b0 T
b0 O
b100100000001000000000000000010 H
b0 `
1d
b10111111110000000000000000000100 G
b10111111110000000000000000000100 X
b10111111110000000000000000000100 7
b100100000001000000000000000010 :
1>
0Y
b1 i
b10 h
b1 5
b10 +
b100100000001000000000000000010 2
1!
#12000
0!
#13000
b0 \
0d
b0 G
b0 X
b0 7
0>
1a
b0 h
b10 f
b0 ^
b11 +
b0 U
1!
#14000
0!
#15000
b10111111110000000000000000000100 T
b1 O
b0 H
b10111111110000000000000000000100 `
b0 ^
b10110000000011000000000000000000 G
b10110000000011000000000000000000 X
b10110000000011000000000000000000 7
b10111111110000000000000000000100 \
b0 :
1Y
0a
b11 h
b0 i
b10 5
b0 f
b1 c
b100 +
b0 2
1!
#16000
0!
#17000
b1000 -
b10 ,
b10111111110000000000000000001000 T
b100100000001000000000000000010 H
b10 K
b100 _
b10111111110000000000000000000100 ^
b10111111110000000000000000001000 G
b10111111110000000000000000000100 X
b10111111110000000000000000001000 7
b100100000001000000000000000010 :
0J
0Y
b0 I
14
1B
b1 h
b0 5
b0 c
b100100000001000000000000000010 2
b0 +
b10111111110000000000000000000100 U
1!
#18000
0!
#19000
b10110000000100000000000000001000 8
b100 g
b1000 _
b10111111110000000000000000010000 T
b10110000000100000000000000001000 G
b10110000000100000000000000001000 X
b10110000000100000000000000001000 7
b10111111110000000000000000001000 \
1J
1Y
b10 I
04
0B
b11 h
b10 5
b10111111110000000000000000001000 ^
b10111111110000000000000000001000 `
b1 +
b10111111110000000000000000001000 6
b100100000001000000000000000010 A
b10111111110000000000000000001000 U
1!
#20000
0!
#21000
b10 T
b100100000001010000000000000001 H
b10 _
b10111111110000000000000000010000 G
b10111111110000000000000000010000 X
b10111111110000000000000000010000 7
b0 `
1d
b100100000001010000000000000001 :
1>
0Y
b1 i
b10 h
b1 5
b10111111110000000000000000010000 ^
b100100000001010000000000000001 2
b10 +
b10111111110000000000000000010000 U
1!
#22000
0!
#23000
b0 T
b0 O
b0 _
0d
b0 \
0>
1a
b0 h
b10 f
b10 ^
b10 G
b10 X
b10 7
b11 +
b10 U
1!
#24000
0!
#25000
b10111111110000000000000000010000 T
b1 O
b0 H
b1000 _
b10111111110000000000000000001000 `
b10 R
b10 )
b10 0
b10111111110000000000000000001000 \
b0 :
1Y
0a
b11 h
b0 i
b10 5
b0 f
b1 c
b0 ^
b10110000000100000000000000001000 G
b10110000000100000000000000001000 X
b10110000000100000000000000001000 7
b0 2
b100 +
b10 &
b10 W
b0 U
1!
#26000
0!
#27000
b10111111110000000000000000001100 T
b100 -
b1 ,
b100 _
b10111111110000000000000000010000 ^
b10111111110000000000000000001100 G
b10111111110000000000000000010000 X
b10111111110000000000000000001100 7
b100100000001010000000000000001 H
b1 K
0J
0Y
b0 I
14
1B
b1 h
b0 5
b0 c
b100100000001010000000000000001 :
b0 +
b100100000001010000000000000001 2
b10111111110000000000000000010000 U
b0 &
b0 W
1!
#28000
0!
#29000
b0 R
b10110000000101000000000000000100 8
b101 g
b0 )
b0 0
b10111111110000000000000000010000 T
b10110000000101000000000000000100 G
b10110000000101000000000000000100 X
b10110000000101000000000000000100 7
b10111111110000000000000000001100 \
1J
1Y
b10 I
04
0B
b11 h
b10 5
b10111111110000000000000000001100 ^
b10111111110000000000000000001100 `
b1 +
b10111111110000000000000000001100 U
b100100000001010000000000000001 A
b10111111110000000000000000001100 6
1!
#30000
0!
#31000
b1 T
b101001000010100000100011 H
b1 _
b10111111110000000000000000010000 G
b10111111110000000000000000010000 X
b10111111110000000000000000010000 7
b0 `
1d
b101001000010100000100011 :
1>
0Y
b1 i
b10 h
b1 5
b10111111110000000000000000010000 ^
b10 +
b101001000010100000100011 2
b10111111110000000000000000010000 U
1!
#32000
0!
#33000
b0 T
b0 O
b0 _
0d
b0 \
0>
1a
b0 h
b10 f
b1 ^
b1 G
b1 X
b1 7
b11 +
b1 U
1!
#34000
0!
#35000
b10111111110000000000000000010000 T
b1 O
b1 R
b100 _
b10111111110000000000000000001100 \
b0 H
b1 )
b1 0
b10111111110000000000000000001100 `
1Y
0a
b11 h
b0 i
b10 5
b0 f
b1 c
b0 ^
b10110000000101000000000000000100 G
b10110000000101000000000000000100 X
b10110000000101000000000000000100 7
b0 :
b100 +
b0 2
b0 U
b1 &
b1 W
1!
#36000
0!
#37000
b1010000010001100 -
b10100000100011 ,
b101001000010100000100011 H
b10111111110000000000000000010000 ^
b10111111110000000000000000010000 G
b10111111110000000000000000010000 X
b10111111110000000000000000010000 7
b10100000100011 K
b101001000010100000100011 :
0J
0Y
b0 I
14
1B
b1 h
b0 5
b0 c
b101001000010100000100011 2
b0 +
b0 &
b0 W
b10111111110000000000000000010000 U
1!
#38000
0!
#39000
b1010000010001100 _
b10110010100100001010000010001100 8
b10 R
b1 S
b10111111110000001010000010011100 T
b10110010100100001010000010001100 G
b10110010100100001010000010001100 X
b10110010100100001010000010001100 7
b10111111110000000000000000010000 \
1J
1Y
04
0B
b11 h
b10 5
b1 b
b101 g
b10 )
b10 0
b1 1
b10111111110000000000000000010000 `
b1 +
b10111111110000000000000000010000 6
b101001000010100000100011 A
1!
#40000
0!
#41000
b11001000001000000101011 H
b10 _
b10111111110000001010000010011100 G
b10111111110000001010000010011100 X
b10111111110000001010000010011100 7
b1 `
b11111111111111111111111111111111 T
1d
b11001000001000000101011 :
1>
b1 V
0Y
b1 i
b0 h
b1 5
b10111111110000001010000010011100 ^
b11001000001000000101011 2
b10 +
b10111111110000001010000010011100 U
1!
#42000
0!
#43000
b11 T
0d
b11111111111111111111111111111100 \
0>
b0 V
1a
b10 f
b11111111111111111111111111111111 ^
b11111111111111111111111111111111 G
b11111111111111111111111111111111 X
b11111111111111111111111111111111 7
b11 +
b11111111111111111111111111111111 U
1!
#44000
0!
#45000
b10111111110000001010000010011100 T
bx H
b1010000010001100 _
b100 g
b10111111110000000000000000010000 `
b11111111111111111111111111111111 S
b11111111111111111111111111111111 1
b10111111110000000000000000010000 \
bx :
1Y
0a
b11 h
b0 i
b10 5
b0 f
b0 b
b1 c
bx ^
b10110010100100001010000010001100 G
b10110010100100001010000010001100 X
b10110010100100001010000010001100 7
bx 2
b100 +
b11 &
b11 W
b11 U
1!
#46000
0!
#47000
b10111111110000000000000000010100 T
b100000010101100 -
b1000000101011 ,
b11001000001000000101011 H
b100 _
b10111111110000001010000010011100 ^
b10111111110000000000000000010100 G
b10111111110000001010000010011100 X
b10111111110000000000000000010100 7
b1000000101011 K
b11001000001000000101011 :
0J
0Y
14
1B
b1 h
b0 5
b0 c
b0 +
b11001000001000000101011 2
b10111111110000001010000010011100 U
1!
#48000
0!
#49000
b0 S
b10110001100100000100000010101100 8
b0 1
b100000010101100 _
b10 g
b10111111110000000100000011000000 T
b10110001100100000100000010101100 G
b10110001100100000100000010101100 X
b10110001100100000100000010101100 7
b10111111110000000000000000010100 \
1J
1Y
04
0B
b11 h
b10 5
b1 b
b10111111110000000000000000010100 ^
b10111111110000000000000000010100 `
b1 +
b0 &
b0 W
b10111111110000000000000000010100 U
b11001000001000000101011 A
b10111111110000000000000000010100 6
1!
#50000
0!
#51000
b11001010001000000101011 H
b10 _
b10111111110000000100000011000000 G
b10111111110000000100000011000000 X
b10111111110000000100000011000000 7
b0 `
b11111111111111111111111111111110 T
1d
b11001010001000000101011 :
1>
b1 V
0Y
b1 i
b0 h
b1 5
b10111111110000000100000011000000 ^
b10 +
b11001010001000000101011 2
b10111111110000000100000011000000 U
1!
#52000
0!
#53000
b10 T
0d
b11111111111111111111111111111100 \
0>
b0 V
1a
b10 f
b10 c
b1 ^
b11111111111111111111111111111110 G
b11111111111111111111111111111110 X
b11111111111111111111111111111110 7
b11 +
b11111111111111111111111111111110 U
1!
#54000
0!
#55000
b10111111110000000100000011000000 T
b100000010101100 _
b10111111110000000000000000010100 \
b100 g
bx ^
bx H
b1 /
b10111111110000000000000000010100 `
1Y
0a
b11 h
b0 i
b10 5
b0 f
b0 b
b1 c
b10110001100100000100000010101100 G
b10110001100100000100000010101100 X
b10110001100100000100000010101100 7
bx :
b100 +
bx 2
b10 U
b10 &
b10 W
1!
#56000
0!
#57000
b10111111110000000000000000011000 T
b100000010101100 -
b1000000101011 ,
b11001010001000000101011 H
b100 _
b10111111110000000100000011000000 ^
b10111111110000000000000000011000 G
b10111111110000000100000011000000 X
b10111111110000000000000000011000 7
b1000000101011 K
b11001010001000000101011 :
0J
0Y
14
1B
b1 h
b0 5
b0 c
b11001010001000000101011 2
b0 +
b10111111110000000100000011000000 U
1!
#58000
0!
#59000
b10110001100101000100000010101100 8
b100000010101100 _
b10 g
b10110001100101000100000010101100 G
b10110001100101000100000010101100 7
b11111111111111111111111111111111 R
b10111111110000000100000011000100 T
b11111111111111111111111111111111 )
b11111111111111111111111111111111 0
b10111111110000000000000000011000 `
1J
1Y
04
0B
b11 h
b10 5
b1 b
b10111111110000000000000000011000 ^
b10110001100101000100000010101100 X
b10111111110000000000000000011000 \
b1 +
b10111111110000000000000000011000 6
b11001010001000000101011 A
b10111111110000000000000000011000 U
b0 &
b0 W
1!
#60000
0!
#61000
b10 O
b11000000001000000101011 H
b11111111111111111111111111111111 _
b10111111110000000100000011000100 G
b10111111110000000100000011000100 X
b10111111110000000100000011000100 7
b0 `
b1 T
1d
b11000000001000000101011 :
1>
b1 V
0Y
b1 i
b0 h
b1 5
b10111111110000000100000011000100 ^
b11000000001000000101011 2
b10 +
b10111111110000000100000011000100 U
1!
#62000
0!
#63000
b11111111111111111111111111111111 T
0d
b0 \
0>
b0 V
1a
b10 f
b10 c
b1 ^
b1 G
b1 X
b1 7
b11 +
b1 U
1!
#64000
0!
#65000
b10111111110000000100000011000100 T
b1 O
b0 H
b100000010101100 _
b101 g
b0 ^
b10111111110000000000000000011000 `
b10111111110000000000000000011000 \
b0 :
1Y
0a
b11 h
b0 i
b10 5
b0 f
b0 b
b1 c
b10110001100101000100000010101100 G
b10110001100101000100000010101100 X
b10110001100101000100000010101100 7
b0 2
b100 +
b1 &
b1 W
b11111111111111111111111111111111 U
1!
#66000
0!
#67000
b10111111110000000000000000011100 T
b100 _
b10111111110000000100000011000100 ^
b10111111110000000000000000011100 G
b10111111110000000100000011000100 X
b10111111110000000000000000011100 7
b11000000001000000101011 H
0J
0Y
14
1B
b1 h
b0 5
b0 c
b11000000001000000101011 :
b0 +
b11000000001000000101011 2
b10111111110000000100000011000100 U
b11 &
b11 W
1!
#68000
0!
#69000
b0 R
b10110001100000000100000010101100 8
b0 )
b0 0
b100000010101100 _
b10 g
b10111111110000000100000011001000 T
b10110001100000000100000010101100 G
b10110001100000000100000010101100 X
b10110001100000000100000010101100 7
b10111111110000000000000000011100 \
1J
1Y
04
0B
b11 h
b10 5
b1 b
b10111111110000000000000000011100 ^
b10111111110000000000000000011100 `
b1 +
b0 &
b0 W
b10111111110000000000000000011100 U
b11000000001000000101011 A
b10111111110000000000000000011100 6
1!
#70000
0!
#71000
b0 O
b1000 H
b0 _
b10111111110000000100000011001000 G
b10111111110000000100000011001000 X
b10111111110000000100000011001000 7
b0 `
b0 T
1d
b1000 :
1>
b1 V
0Y
b1 i
b0 h
b1 5
b10111111110000000100000011001000 ^
b10 +
b1000 2
b10111111110000000100000011001000 U
1!
#72000
0!
#73000
0d
b0 G
b0 X
b0 7
b0 \
0>
b0 V
1a
b10 f
b10 c
b1 ^
b11 +
b0 U
1!
#74000
0!
#75000
b10111111110000000100000011001000 T
b1 O
b0 H
b100000010101100 _
b10111111110000000000000000011100 `
b0 g
b0 ^
b10110001100000000100000010101100 G
b10110001100000000100000010101100 X
b10110001100000000100000010101100 7
b10111111110000000000000000011100 \
b0 :
1Y
0a
b11 h
b0 i
b10 5
b0 f
b0 b
b1 c
b100 +
b0 2
1!
#76000
0!
#77000
b10111111110000000000000000100000 T
b100000 -
b1000 ,
b1000 H
b100 _
b10111111110000000100000011001000 ^
b10111111110000000000000000100000 G
b10111111110000000100000011001000 X
b10111111110000000000000000100000 7
b1000 K
b1000 :
0J
0Y
14
1B
b1 h
b0 5
b0 c
b1000 2
b0 +
b10111111110000000100000011001000 U
1!
#78000
0!
#79000
b10110000000000000000000000100000 8
b100000 _
b10110000000000000000000000100000 G
b10110000000000000000000000100000 7
b10111111110000000000000001000000 T
b10111111110000000000000000100000 `
b10111111110000000000000000100000 \
1J
1Y
04
0B
b11 h
b10 5
b1 b
b10111111110000000000000000100000 ^
b10110000000000000000000000100000 X
b1 +
b10111111110000000000000000100000 6
b1000 A
b10111111110000000000000000100000 U
1!
#80000
0!
#81000
b0 T
b0 O
b0 H
b0 _
b10111111110000000000000001000000 G
b10111111110000000000000001000000 X
b10111111110000000000000001000000 7
b0 `
1e
1d
b0 :
1>
0Y
b1 i
b110 h
b1 5
b10111111110000000000000001000000 ^
b0 2
b10 +
b10111111110000000000000001000000 U
1!
#82000
0!
#83000
0d
0e
b0 G
b0 X
b0 7
b0 \
0>
1[
b0 h
b10 f
b0 ^
b11 +
b0 U
1@
1!
#84000
0!
#85000
b10111111110000000000000001000000 T
b1 O
b100000 _
b10111111110000000000000000100000 `
b10110000000000000000000000100000 G
b10110000000000000000000000100000 X
b10110000000000000000000000100000 7
b10111111110000000000000000100000 \
1Y
0[
b11 h
b0 i
b10 5
b0 f
b0 b
b1 c
b100 +
1!
#86000
0!
#87000
b10111111110000000000000000100100 T
b0 -
b0 ,
b100 _
b10111111110000000000000001000000 ^
b10111111110000000000000000100100 G
b10111111110000000000000001000000 X
b10111111110000000000000000100100 7
b0 K
0J
0Y
14
1B
b1 h
b0 5
b0 c
b0 +
b10111111110000000000000001000000 U
1!
#88000
0!
#89000
b10110000000000000000000000000000 8
b11111 g
b10111111110000000000000000101000 T
b0 G
b10110000000000000000000000000000 X
b0 7
b10111111110000000000000000100100 \
1J
1>
1Y
0B
b11 5
b10 b
b11 c
b10111111110000000000000000101000 ^
b10111111110000000000000000100100 `
b1001 +
b10111111110000000000000000100100 U
b0 A
b10111111110000000000000000100100 6
1!
#90000
0!
#91000
b0 O
b0 8
b0 _
b10111111110000000000000000101000 G
b10111111110000000000000000101000 X
b10111111110000000000000000101000 7
b0 g
b0 T
1d
b0 `
b0 \
b101 V
0Y
1j
04
b1 i
b100 h
b1 5
b1 b
b0 c
b10 +
b0 6
b10111111110000000000000000101000 U
1!
#92000
0!
#93000
0d
b0 G
b0 X
b0 7
b0 \
0>
b0 V
0j
1a
b0 h
b10 f
b0 ^
b11 +
1F
0@
b0 U
1!
#94000
0!
#95000
1Y
0a
b11 h
b0 i
b10 5
b0 f
b0 b
b1 c
b100 +
1!
#96000
0!
#97000
b100 G
b100 7
b100 T
b1 O
b100 _
03
b1 h
b0 5
b0 c
b101 +
1!
#98000
0!
#99000
b100 ^
0]
b100 U
1!
