test/waveforms/SRLV_2.vcd
$date
	Tue Dec 15 00:12:49 2020
$end
$version
	Icarus Verilog
$end
$timescale
	10ps
$end
$scope module mips_tb $end
$scope module cpuInst $end
$var wire 1 ! clk $end
$var wire 32 " constant_1 [31:0] $end
$var wire 32 # constant_31 [31:0] $end
$var wire 32 $ constant_4 [31:0] $end
$var wire 32 % constant_reset [31:0] $end
$var wire 2 & lrmuxLSB [1:0] $end
$var wire 1 ' reset $end
$var wire 1 ( waitrequest $end
$var wire 32 ) writedata [31:0] $end
$var wire 1 * write $end
$var wire 4 + state [3:0] $end
$var wire 32 , signimm [31:0] $end
$var wire 32 - shiftimm [31:0] $end
$var wire 1 . reset_mux_cnt $end
$var wire 32 / register_v0 [31:0] $end
$var wire 32 0 regbout [31:0] $end
$var wire 32 1 regaout [31:0] $end
$var wire 32 2 readdata [31:0] $end
$var wire 1 3 read $end
$var wire 1 4 pc_write $end
$var wire 2 5 pc_src_mux [1:0] $end
$var wire 32 6 pc_out [31:0] $end
$var wire 32 7 pc_data [31:0] $end
$var wire 32 8 pc4_jump2 [31:0] $end
$var wire 3 9 msk_cnt [2:0] $end
$var wire 32 : masked_data [31:0] $end
$var wire 1 ; lrmuxMSB $end
$var wire 1 < lr_en $end
$var wire 1 = link_in $end
$var wire 1 > link_en $end
$var wire 1 ? link $end
$var wire 1 @ jump $end
$var wire 32 A irout [31:0] $end
$var wire 1 B ir_write $end
$var wire 1 C hilowrite $end
$var wire 1 D hilosel $end
$var wire 32 E hiloout [31:0] $end
$var wire 1 F halt $end
$var wire 1 G half_store_en $end
$var wire 32 H final_pc_data [31:0] $end
$var wire 32 I final_data [31:0] $end
$var wire 2 J extendcont [1:0] $end
$var wire 1 K extend_mux $end
$var wire 16 L extend_in [15:0] $end
$var wire 1 M divrst $end
$var wire 1 N divdone $end
$var wire 32 O constant_0 [31:0] $end
$var wire 2 P cond [1:0] $end
$var wire 32 Q bytehalf [31:0] $end
$var wire 4 R byteenable [3:0] $end
$var wire 1 S byte_store_en $end
$var wire 2 T byte_cnt [1:0] $end
$var wire 32 U bout [31:0] $end
$var wire 32 V bool_out [31:0] $end
$var wire 1 W bool_cnt $end
$var wire 32 X aout [31:0] $end
$var wire 32 Y aluresult [31:0] $end
$var wire 32 Z aluout [31:0] $end
$var wire 4 [ aluop [3:0] $end
$var wire 2 \ alu2out [1:0] $end
$var wire 32 ] altpcsrc [31:0] $end
$var wire 1 ^ altpcmux_cnt $end
$var wire 32 _ altpcdata [31:0] $end
$var wire 1 ` alt_pc_write $end
$var wire 32 a address [31:0] $end
$var wire 1 b active $end
$var wire 32 c WriteRegData [31:0] $end
$var wire 32 d SrcBOut [31:0] $end
$var wire 32 e SrcAOut [31:0] $end
$var wire 1 f RegWrite $end
$var wire 2 g RegDst [1:0] $end
$var wire 2 h MemToReg [1:0] $end
$var wire 1 i Jump_EN $end
$var wire 1 j JumpIN $end
$var wire 2 k IorD_cnt [1:0] $end
$var wire 5 l Dst [4:0] $end
$var wire 3 m ALUSrcB [2:0] $end
$var wire 2 n ALUSrcA [1:0] $end
$var wire 1 o ABswitch_cnt $end
$upscope $end
$upscope $end
$enddefinitions $end
#0
$dumpvars
xo
bx n
bx m
bx l
bx k
0j
0i
bx h
bx g
xf
bx e
bx d
bx c
xb
bx a
x`
bx _
x^
bx ]
bx \
bx [
bx Z
bx Y
bx X
xW
bx V
bx U
bx T
xS
bx R
bx Q
bx P
bx O
1N
xM
bx L
xK
bx J
bx I
bx H
xG
xF
bx E
xD
xC
xB
bx A
x@
x?
x>
x=
x<
x;
bx :
bx 9
bx00 8
bx 7
bx 6
bx 5
x4
x3
bx 2
bx 1
bx 0
bx /
x.
bx00 -
bx ,
bx +
x*
bx )
0(
0'
bx &
b10111111110000000000000000000000 %
b100 $
b11111 #
b1 "
0!
$end
#1000
b10110000000000000000000000000000 8
0@
0?
b0 &
b0 \
b0 Z
b0 A
b10111111110000000000000000000000 6
b0 _
1'
1!
#2000
0!
#3000
b0 )
b0 -
b10111111110000000000000000000100 7
b0 Q
b10111111110000000000000000000100 Y
b1 P
b100 d
b0 l
b0 V
b0 c
b0 L
b0 ,
b10111111110000000000000000000000 e
b0 U
b0 X
b10111111110000000000000000000000 H
b10110000000000000000000000000000 ]
b10111111110000000000000000000000 a
b1111 R
0W
0G
0S
1K
0M
0=
0>
b0 [
b0 T
b0 9
0;
0<
0D
0C
1.
1^
0`
b0 J
0o
0f
14
13
0*
0B
b1 m
b0 n
b0 5
b0 k
b0 g
b0 h
b0 O
b0 /
b0 0
b0 1
0'
0F
b1111 +
1b
1!
#4000
0!
#5000
b100100000000110000000000001010 I
b100100000000110000000000001010 :
b10111111110000000000000000000100 c
b100100000000110000000000001010 2
b1110 +
b0 E
b10111111110000000000000000000100 Z
1!
#6000
0!
#7000
b101000 -
b1010 ,
b1010 L
b10111111110000000000000000000100 H
b10111111110000000000000000000100 ]
0K
0.
0^
1B
b0 +
1!
#8000
0!
#9000
b10110000000011000000000000101000 8
b11 l
b101000 d
b10111111110000000000000000101100 Y
b10110000000011000000000000101000 H
b10110000000011000000000000101000 ]
b10110000000011000000000000101000 7
b10111111110000000000000000000100 a
1K
1^
b10 J
04
0B
b11 m
b10 5
b10111111110000000000000000000100 e
b1 +
b100100000000110000000000001010 A
b10111111110000000000000000000100 6
1!
#10000
0!
#11000
b1010 Y
b100100000001001111111111110000 I
b0 e
b1010 d
1i
b10111111110000000000000000101100 H
b10111111110000000000000000101100 ]
b10111111110000000000000000101100 7
b100100000001001111111111110000 :
1>
0^
b1 n
b10 m
b1 5
b10111111110000000000000000101100 c
b10 +
b100100000001001111111111110000 2
b10111111110000000000000000101100 Z
1!
#12000
0!
#13000
b0 Y
b0 P
b0 d
0i
b1010 H
b1010 ]
b1010 7
b1000 a
0>
1f
b0 m
b10 k
b1010 c
b11 +
b1010 Z
1!
#14000
0!
#15000
b1010 )
b10111111110000000000000000101100 Y
b1 P
b1010 Q
b11111111111111111111111111111111 I
b101000 d
b10111111110000000000000000000100 e
b1010 U
b10110000000011000000000000101000 H
b10110000000011000000000000101000 ]
b10110000000011000000000000101000 7
b10111111110000000000000000000100 a
b11111111111111111111111111111111 :
1^
0f
b11 m
b0 n
b10 5
b0 k
b1 h
b11111111111111111111111111111111 c
b1010 0
b100 +
b11111111111111111111111111111111 2
b0 Z
b10 &
b10 \
1!
#16000
0!
#17000
b111111111111000000 -
b1111111111110000 ,
b10111111110000000000000000001000 Y
b100100000001001111111111110000 I
b1111111111110000 L
b100 d
b10111111110000000000000000101100 c
b10111111110000000000000000001000 H
b10111111110000000000000000101100 ]
b10111111110000000000000000001000 7
b100100000001001111111111110000 :
0K
0^
b0 J
14
1B
b1 m
b0 5
b0 h
b100100000001001111111111110000 2
b0 +
b0 &
b0 \
b10111111110000000000000000101100 Z
1!
#18000
0!
#19000
b0 )
b0 Q
b0 U
b10110000000100111111111111000000 8
b11111111111111111111111111000000 -
b100 l
b0 0
b11111111111111111111111111110000 ,
b111111111111000000 d
b10111111110000111111111111001000 Y
b10110000000100111111111111000000 H
b10110000000100111111111111000000 ]
b10110000000100111111111111000000 7
b10111111110000000000000000001000 a
1K
1^
b10 J
04
0B
b11 m
b10 5
b10111111110000000000000000001000 c
b10111111110000000000000000001000 e
b1 +
b10111111110000000000000000001000 6
b100100000001001111111111110000 A
b10111111110000000000000000001000 Z
1!
#20000
0!
#21000
b11111111111111111111111111110000 Y
b10 P
b100100000010100000000000000010 I
b11111111111111111111111111110000 d
b10111111110000111111111111001000 H
b10111111110000111111111111001000 ]
b10111111110000111111111111001000 7
b0 e
1i
b100100000010100000000000000010 :
1>
0^
b1 n
b10 m
b1 5
b10111111110000111111111111001000 c
b100100000010100000000000000010 2
b10 +
b10111111110000111111111111001000 Z
1!
#22000
0!
#23000
b0 Y
b0 P
b0 d
0i
b11111111111111111111111111110000 a
0>
1f
b0 m
b10 k
b11111111111111111111111111110000 c
b11111111111111111111111111110000 H
b11111111111111111111111111110000 ]
b11111111111111111111111111110000 7
b11 +
b11111111111111111111111111110000 Z
1!
#24000
0!
#25000
b11111111111111111111111111110000 )
b10111111101111111111111111001000 Y
b1 P
b11111111111111111111111111110000 Q
bx I
b11111111111111111111111111000000 d
b10111111110000000000000000001000 e
b11111111111111111111111111110000 U
b11111111111111111111111111110000 0
b10111111110000000000000000001000 a
bx :
1^
0f
b11 m
b0 n
b10 5
b0 k
b1 h
bx c
b10110000000100111111111111000000 H
b10110000000100111111111111000000 ]
b10110000000100111111111111000000 7
bx 2
b100 +
b0 Z
1!
#26000
0!
#27000
b10111111110000000000000000001100 Y
b1000 -
b100100000010100000000000000010 I
b100 d
b10111111101111111111111111001000 c
b10111111110000000000000000001100 H
b10111111101111111111111111001000 ]
b10111111110000000000000000001100 7
b10 L
b10 ,
b100100000010100000000000000010 :
0K
0^
b0 J
14
1B
b1 m
b0 5
b0 h
b0 +
b100100000010100000000000000010 2
b10111111101111111111111111001000 Z
1!
#28000
0!
#29000
b0 )
b0 Q
b0 U
b10110000001010000000000000001000 8
b1010 l
b0 0
b1000 d
b10111111110000000000000000010100 Y
b10110000001010000000000000001000 H
b10110000001010000000000000001000 ]
b10110000001010000000000000001000 7
b10111111110000000000000000001100 a
1K
1^
b10 J
04
0B
b11 m
b10 5
b10111111110000000000000000001100 c
b10111111110000000000000000001100 e
b1 +
b10111111110000000000000000001100 Z
b100100000010100000000000000010 A
b10111111110000000000000000001100 6
1!
#30000
0!
#31000
b10 Y
b100100000010110000000000000001 I
b10 d
b10111111110000000000000000010100 H
b10111111110000000000000000010100 ]
b10111111110000000000000000010100 7
b0 e
1i
b100100000010110000000000000001 :
1>
0^
b1 n
b10 m
b1 5
b10111111110000000000000000010100 c
b10 +
b100100000010110000000000000001 2
b10111111110000000000000000010100 Z
1!
#32000
0!
#33000
b0 Y
b0 P
b0 d
0i
b0 a
0>
1f
b0 m
b10 k
b10 c
b10 H
b10 ]
b10 7
b11 +
b10 Z
1!
#34000
0!
#35000
b10 )
b10 Q
b10111111110000000000000000010100 Y
b1 P
b10 U
b1000 d
b10111111110000000000000000001100 a
b0 I
b10 0
b10111111110000000000000000001100 e
1^
0f
b11 m
b0 n
b10 5
b0 k
b1 h
b0 c
b10110000001010000000000000001000 H
b10110000001010000000000000001000 ]
b10110000001010000000000000001000 7
b0 :
b100 +
b0 2
b0 Z
b10 &
b10 \
1!
#36000
0!
#37000
b10111111110000000000000000010000 Y
b100 -
b1 ,
b100100000010110000000000000001 I
b100 d
b10111111110000000000000000010100 c
b10111111110000000000000000010000 H
b10111111110000000000000000010100 ]
b10111111110000000000000000010000 7
b1 L
b100100000010110000000000000001 :
0K
0^
b0 J
14
1B
b1 m
b0 5
b0 h
b100100000010110000000000000001 2
b0 +
b0 &
b0 \
b10111111110000000000000000010100 Z
1!
#38000
0!
#39000
b0 )
b10110000001011000000000000000100 8
b0 Q
b1011 l
b10110000001011000000000000000100 H
b10110000001011000000000000000100 7
b0 U
b10111111110000000000000000010100 Y
b0 0
b10111111110000000000000000010000 e
b10111111110000000000000000010000 a
1K
1^
b10 J
04
0B
b11 m
b10 5
b10111111110000000000000000010000 c
b10110000001011000000000000000100 ]
b1 +
b10111111110000000000000000010000 6
b100100000010110000000000000001 A
b10111111110000000000000000010000 Z
1!
#40000
0!
#41000
b1 Y
b100100000011000000000000001010 I
b1 d
b10111111110000000000000000010100 H
b10111111110000000000000000010100 ]
b10111111110000000000000000010100 7
b0 e
1i
b100100000011000000000000001010 :
1>
0^
b1 n
b10 m
b1 5
b10111111110000000000000000010100 c
b100100000011000000000000001010 2
b10 +
b10111111110000000000000000010100 Z
1!
#42000
0!
#43000
b0 Y
b0 P
b0 d
0i
b0 a
0>
1f
b0 m
b10 k
b1 c
b1 H
b1 ]
b1 7
b11 +
b1 Z
1!
#44000
0!
#45000
b1 )
b10111111110000000000000000010100 Y
b1 P
b1 Q
b0 I
b100 d
b10111111110000000000000000010000 e
b1 U
b1 0
b10111111110000000000000000010000 a
b0 :
1^
0f
b11 m
b0 n
b10 5
b0 k
b1 h
b0 c
b10110000001011000000000000000100 H
b10110000001011000000000000000100 ]
b10110000001011000000000000000100 7
b0 2
b100 +
b1 &
b1 \
b0 Z
1!
#46000
0!
#47000
b101000 -
b1010 ,
b10111111110000000000000000010100 c
b10111111110000000000000000010100 H
b10111111110000000000000000010100 ]
b10111111110000000000000000010100 7
b100100000011000000000000001010 I
b1010 L
0K
0^
b0 J
14
1B
b1 m
b0 5
b0 h
b100100000011000000000000001010 :
b0 +
b100100000011000000000000001010 2
b10111111110000000000000000010100 Z
b0 &
b0 \
1!
#48000
0!
#49000
b0 )
b0 Q
b0 U
b10110000001100000000000000101000 8
b1100 l
b0 0
b101000 d
b10111111110000000000000000111100 Y
b10110000001100000000000000101000 H
b10110000001100000000000000101000 ]
b10110000001100000000000000101000 7
b10111111110000000000000000010100 a
1K
1^
b10 J
04
0B
b11 m
b10 5
b10111111110000000000000000010100 e
b1 +
b100100000011000000000000001010 A
b10111111110000000000000000010100 6
1!
#50000
0!
#51000
b1010 Y
b110001000000000110 I
b1010 d
b10111111110000000000000000111100 H
b10111111110000000000000000111100 ]
b10111111110000000000000000111100 7
b0 e
1i
b110001000000000110 :
1>
0^
b1 n
b10 m
b1 5
b10111111110000000000000000111100 c
b10 +
b110001000000000110 2
b10111111110000000000000000111100 Z
1!
#52000
0!
#53000
b0 Y
b0 P
b0 d
0i
b1000 a
0>
1f
b0 m
b10 k
b1010 c
b1010 H
b1010 ]
b1010 7
b11 +
b1010 Z
1!
#54000
0!
#55000
b1010 )
b10111111110000000000000000111100 Y
b1 P
b1010 Q
b11111111111111111111111111111111 I
b101000 d
b10111111110000000000000000010100 e
b1010 U
b10110000001100000000000000101000 H
b10110000001100000000000000101000 ]
b10110000001100000000000000101000 7
b10111111110000000000000000010100 a
b11111111111111111111111111111111 :
1^
0f
b11 m
b0 n
b10 5
b0 k
b1 h
b11111111111111111111111111111111 c
b1010 0
b100 +
b11111111111111111111111111111111 2
b0 Z
b10 &
b10 \
1!
#56000
0!
#57000
b10111111110000000000000000011000 Y
b100000000011000 -
b1000000000110 ,
b110001000000000110 I
b100 d
b10111111110000000000000000111100 c
b10111111110000000000000000011000 H
b10111111110000000000000000111100 ]
b10111111110000000000000000011000 7
b1000000000110 L
b110001000000000110 :
0K
0^
b0 J
14
1B
b1 m
b0 5
b0 h
b110001000000000110 2
b0 +
b0 &
b0 \
b10111111110000000000000000111100 Z
1!
#58000
0!
#59000
b10110000000011000100000000011000 8
b100000000011000 d
b10 l
b10110000000011000100000000011000 H
b10110000000011000100000000011000 7
b10111111110000000100000000110000 Y
b10111111110000000000000000011000 e
b10111111110000000000000000011000 a
1K
1^
04
0B
b11 m
b10 5
b1 g
b10111111110000000000000000011000 c
b10110000000011000100000000011000 ]
b1 +
b10111111110000000000000000011000 6
b110001000000000110 A
b10111111110000000000000000011000 Z
1!
#60000
0!
#61000
b0 )
b10 P
b0 Q
b10101100000000100000000000000000 I
b0 d
b10111111110000000100000000110000 H
b10111111110000000100000000110000 ]
b10111111110000000100000000110000 7
b1010 e
b0 U
b1010 X
b1010 Y
1i
b10101100000000100000000000000000 :
1>
b110 [
0^
1o
b1 n
b101 m
b1 5
b10111111110000000100000000110000 c
b10101100000000100000000000000000 2
b10 +
b10111111110000000100000000110000 Z
1!
#62000
0!
#63000
b1010 )
b0 Y
b0 P
b1010 Q
b0 e
b1010 U
b0 X
0i
b1010 H
b1010 ]
b1010 7
b1000 a
0>
b0 [
0o
1f
b0 m
b10 k
b1010 c
b11 +
b1010 Z
1!
#64000
0!
#65000
b10111111110000000100000000110000 Y
b1 P
b11111111111111111111111111111111 I
b100000000011000 d
b10111111110000000000000000011000 e
b11 l
b10110000000011000100000000011000 H
b10110000000011000100000000011000 ]
b10110000000011000100000000011000 7
b10111111110000000000000000011000 a
b11111111111111111111111111111111 :
1^
0f
b11 m
b0 n
b10 5
b0 k
b0 g
b1 h
b11111111111111111111111111111111 c
b1010 /
b11111111111111111111111111111111 2
b100 +
b10 &
b10 \
b0 Z
1!
#66000
0!
#67000
b10111111110000000000000000011100 Y
b0 -
b0 ,
b100 d
b10111111110000000100000000110000 c
b10111111110000000000000000011100 H
b10111111110000000100000000110000 ]
b10111111110000000000000000011100 7
b10101100000000100000000000000000 I
b0 L
0K
0^
14
1B
b1 m
b0 5
b0 h
b10101100000000100000000000000000 :
b0 +
b10101100000000100000000000000000 2
b10111111110000000100000000110000 Z
b0 &
b0 \
1!
#68000
0!
#69000
b10110000000010000000000000000000 8
b10 l
b0 d
b10111111110000000000000000011100 Y
b10110000000010000000000000000000 H
b10110000000010000000000000000000 ]
b10110000000010000000000000000000 7
b10111111110000000000000000011100 a
1K
1^
b10 J
04
0B
b11 m
b10 5
b10111111110000000000000000011100 c
b10111111110000000000000000011100 e
b1 +
b10111111110000000000000000011100 Z
b10101100000000100000000000000000 A
b10111111110000000000000000011100 6
1!
#70000
0!
#71000
b0 Y
b0 P
b1010000110001000000000110 I
b0 e
1i
b10111111110000000000000000011100 H
b10111111110000000000000000011100 ]
b10111111110000000000000000011100 7
b1010000110001000000000110 :
1>
0^
b1 n
b10 m
b1 5
b10 +
b1010000110001000000000110 2
1!
#72000
0!
#73000
b1010 Y
b1 P
b1010 d
0i
b0 H
b0 ]
b0 7
b0 a
0>
03
1*
b0 m
b1 k
b0 c
b11 +
b0 Z
1!
#74000
0!
#75000
b10111111110000000000000000011100 Y
b0 d
b10111111110000000000000000011100 e
b10111111110000000000000000011100 a
1^
13
0*
b11 m
b0 n
b10 5
b0 k
b1 h
b1010000110001000000000110 c
b10110000000010000000000000000000 H
b10110000000010000000000000000000 ]
b10110000000010000000000000000000 7
b100 +
b1010 Z
1!
#76000
0!
#77000
b100000000011000 -
b1000000000110 ,
b10111111110000000000000000100000 Y
b1000000000110 L
b100 d
b10111111110000000000000000011100 c
b10111111110000000000000000100000 H
b10111111110000000000000000011100 ]
b10111111110000000000000000100000 7
0K
0^
b0 J
14
1B
b1 m
b0 5
b0 h
b0 +
b10 &
b10 \
b10111111110000000000000000011100 Z
1!
#78000
0!
#79000
b10110101000011000100000000011000 8
b100000000011000 d
b10110101000011000100000000011000 H
b10110101000011000100000000011000 7
b10 X
b10111111110000000100000000111000 Y
b10 1
b10111111110000000000000000100000 e
1K
1^
04
0B
b11 m
b10 5
b1 g
b10111111110000000000000000100000 c
b10110101000011000100000000011000 ]
b10111111110000000000000000100000 a
b1 +
b10111111110000000000000000100000 6
b1010000110001000000000110 A
b10111111110000000000000000100000 Z
b0 &
b0 \
1!
#80000
0!
#81000
b10 )
b10 P
b10 Q
b10101100000000100000000000000100 I
b10 d
b10111111110000000100000000111000 H
b10111111110000000100000000111000 ]
b10111111110000000100000000111000 7
b1010 e
b10 U
b1010 X
b10 Y
1i
b10101100000000100000000000000100 :
1>
b110 [
0^
1o
b1 n
b101 m
b1 5
b10111111110000000100000000111000 c
b10101100000000100000000000000100 2
b10 +
b10111111110000000100000000111000 Z
1!
#82000
0!
#83000
b1010 )
b1 P
b1010 Q
b1010 d
b10 e
b1010 U
b10 X
b1100 Y
0i
b0 a
0>
b0 [
0o
1f
b0 m
b10 k
b10 c
b10 H
b10 ]
b10 7
b11 +
b10 Z
1!
#84000
0!
#85000
b10111111110000000100000000111000 Y
b1010 I
b100000000011000 d
b11 l
b10111111110000000000000000100000 e
b10 /
b10111111110000000000000000100000 a
b1010 :
1^
0f
b11 m
b0 n
b10 5
b0 k
b0 g
b1 h
b1010 c
b10110101000011000100000000011000 H
b10110101000011000100000000011000 ]
b10110101000011000100000000011000 7
b1010 2
b100 +
b10 &
b10 \
b1100 Z
1!
#86000
0!
#87000
b10111111110000000000000000100100 Y
b10000 -
b100 ,
b100 d
b10111111110000000100000000111000 c
b10111111110000000000000000100100 H
b10111111110000000100000000111000 ]
b10111111110000000000000000100100 7
b10101100000000100000000000000100 I
b100 L
0K
0^
14
1B
b1 m
b0 5
b0 h
b10101100000000100000000000000100 :
b0 +
b10101100000000100000000000000100 2
b10111111110000000100000000111000 Z
b0 &
b0 \
1!
#88000
0!
#89000
b10 )
b10 Q
b10 U
b0 X
b10110000000010000000000000010000 8
b10 l
b10 0
b0 1
b10000 d
b10111111110000000000000000110100 Y
b10110000000010000000000000010000 H
b10110000000010000000000000010000 ]
b10110000000010000000000000010000 7
b10111111110000000000000000100100 a
1K
1^
b10 J
04
0B
b11 m
b10 5
b10111111110000000000000000100100 c
b10111111110000000000000000100100 e
b1 +
b10111111110000000000000000100100 Z
b10101100000000100000000000000100 A
b10111111110000000000000000100100 6
1!
#90000
0!
#91000
b100 Y
b1011000110001000000000110 I
b100 d
b10111111110000000000000000110100 H
b10111111110000000000000000110100 ]
b10111111110000000000000000110100 7
b0 e
1i
b1011000110001000000000110 :
1>
0^
b1 n
b10 m
b1 5
b10111111110000000000000000110100 c
b10 +
b1011000110001000000000110 2
b10111111110000000000000000110100 Z
1!
#92000
0!
#93000
b10 Y
b10 d
0i
b100 a
0>
03
1*
b0 m
b1 k
b100 c
b100 H
b100 ]
b100 7
b11 +
b100 Z
1!
#94000
0!
#95000
b10111111110000000000000000110100 Y
b10000 d
b10111111110000000000000000100100 e
b10111111110000000000000000100100 a
1^
13
0*
b11 m
b0 n
b10 5
b0 k
b1 h
b1011000110001000000000110 c
b10110000000010000000000000010000 H
b10110000000010000000000000010000 ]
b10110000000010000000000000010000 7
b100 +
b10 Z
1!
#96000
0!
#97000
b10111111110000000000000000101000 Y
b100000000011000 -
b1000000000110 ,
b100 d
b10111111110000000000000000110100 c
b10111111110000000000000000101000 H
b10111111110000000000000000110100 ]
b10111111110000000000000000101000 7
b1000000000110 L
0K
0^
b0 J
14
1B
b1 m
b0 5
b0 h
b0 +
b10 &
b10 \
b10111111110000000000000000110100 Z
1!
#98000
0!
#99000
b1010 )
b10110101100011000100000000011000 8
b100000000011000 d
b10110101100011000100000000011000 H
b10110101100011000100000000011000 7
b1010 Q
b1010 U
b1 X
b10111111110000000100000001000000 Y
b1010 0
b1 1
b10111111110000000000000000101000 e
1K
1^
04
0B
b11 m
b10 5
b1 g
b10111111110000000000000000101000 c
b10110101100011000100000000011000 ]
b10111111110000000000000000101000 a
b1 +
b10111111110000000000000000101000 6
b1011000110001000000000110 A
b10111111110000000000000000101000 Z
b0 &
b0 \
1!
#100000
0!
#101000
b1 )
b10 P
b1 Q
b10101100000000100000000000001000 I
b1 d
b10111111110000000100000001000000 H
b10111111110000000100000001000000 ]
b10111111110000000100000001000000 7
b1010 e
b1 U
b1010 X
b101 Y
1i
b10101100000000100000000000001000 :
1>
b110 [
0^
1o
b1 n
b101 m
b1 5
b10111111110000000100000001000000 c
b10101100000000100000000000001000 2
b10 +
b10111111110000000100000001000000 Z
1!
#102000
0!
#103000
b1010 )
b1 P
b1010 Q
b1010 d
b1 e
b1010 U
b1 X
b1011 Y
0i
b100 a
0>
b0 [
0o
1f
b0 m
b10 k
b101 c
b101 H
b101 ]
b101 7
b11 +
b101 Z
1!
#104000
0!
#105000
b10111111110000000100000001000000 Y
b10 I
b100000000011000 d
b11 l
b10111111110000000000000000101000 e
b101 /
b10111111110000000000000000101000 a
b10 :
1^
0f
b11 m
b0 n
b10 5
b0 k
b0 g
b1 h
b10 c
b10110101100011000100000000011000 H
b10110101100011000100000000011000 ]
b10110101100011000100000000011000 7
b10 2
b100 +
b1 &
b1 \
b1011 Z
1!
#106000
0!
#107000
b10111111110000000000000000101100 Y
b100000 -
b1000 ,
b100 d
b10111111110000000100000001000000 c
b10111111110000000000000000101100 H
b10111111110000000100000001000000 ]
b10111111110000000000000000101100 7
b10101100000000100000000000001000 I
b1000 L
0K
0^
14
1B
b1 m
b0 5
b0 h
b10101100000000100000000000001000 :
b0 +
b10101100000000100000000000001000 2
b10111111110000000100000001000000 Z
b11 &
b11 \
1!
#108000
0!
#109000
b101 )
b101 Q
b101 U
b0 X
b10110000000010000000000000100000 8
b10 l
b101 0
b0 1
b100000 d
b10111111110000000000000001001100 Y
b10110000000010000000000000100000 H
b10110000000010000000000000100000 ]
b10110000000010000000000000100000 7
b10111111110000000000000000101100 a
1K
1^
b10 J
04
0B
b11 m
b10 5
b10111111110000000000000000101100 c
b10111111110000000000000000101100 e
b1 +
b0 &
b0 \
b10111111110000000000000000101100 Z
b10101100000000100000000000001000 A
b10111111110000000000000000101100 6
1!
#110000
0!
#111000
b1000 Y
b1100001000001000000000110 I
b1000 d
b10111111110000000000000001001100 H
b10111111110000000000000001001100 ]
b10111111110000000000000001001100 7
b0 e
1i
b1100001000001000000000110 :
1>
0^
b1 n
b10 m
b1 5
b10111111110000000000000001001100 c
b10 +
b1100001000001000000000110 2
b10111111110000000000000001001100 Z
1!
#112000
0!
#113000
b101 Y
b101 d
0i
b1000 a
0>
03
1*
b0 m
b1 k
b1000 c
b1000 H
b1000 ]
b1000 7
b11 +
b1000 Z
1!
#114000
0!
#115000
b10111111110000000000000001001100 Y
b100000 d
b10111111110000000000000000101100 e
b10111111110000000000000000101100 a
1^
13
0*
b11 m
b0 n
b10 5
b0 k
b1 h
b1100001000001000000000110 c
b10110000000010000000000000100000 H
b10110000000010000000000000100000 ]
b10110000000010000000000000100000 7
b100 +
b101 Z
1!
#116000
0!
#117000
b10111111110000000000000000110000 Y
b100000000011000 -
b1000000000110 ,
b100 d
b10111111110000000000000001001100 c
b10111111110000000000000000110000 H
b10111111110000000000000001001100 ]
b10111111110000000000000000110000 7
b1000000000110 L
0K
0^
b0 J
14
1B
b1 m
b0 5
b0 h
b0 +
b1 &
b1 \
b10111111110000000000000001001100 Z
1!
#118000
0!
#119000
b11111111111111111111111111110000 )
b10110110000100000100000000011000 8
b100000000011000 d
b10110110000100000100000000011000 H
b10110110000100000100000000011000 7
b11111111111111111111111111110000 Q
b11111111111111111111111111110000 U
b1010 X
b10111111110000000100000001001000 Y
b11111111111111111111111111110000 0
b1010 1
b10111111110000000000000000110000 e
1K
1^
04
0B
b11 m
b10 5
b1 g
b10111111110000000000000000110000 c
b10110110000100000100000000011000 ]
b10111111110000000000000000110000 a
b1 +
b10111111110000000000000000110000 6
b1100001000001000000000110 A
b10111111110000000000000000110000 Z
b0 &
b0 \
1!
#120000
0!
#121000
b1010 )
b1010 Q
b1000 I
b1010 d
b10111111110000000100000001001000 H
b10111111110000000100000001001000 ]
b10111111110000000100000001001000 7
b11111111111111111111111111110000 e
b1010 U
b11111111111111111111111111110000 X
b1111111111111111111111 Y
1i
b1000 :
1>
b110 [
0^
1o
b1 n
b101 m
b1 5
b10111111110000000100000001001000 c
b1000 2
b10 +
b10111111110000000100000001001000 Z
1!
#122000
0!
#123000
b11111111111111111111111111110000 )
b10 P
b11111111111111111111111111110000 Q
b11111111111111111111111111110000 d
b1010 e
b11111111111111111111111111110000 U
b1010 X
b11111111111111111111111111111010 Y
0i
b1111111111111111111100 a
0>
b0 [
0o
1f
b0 m
b10 k
b1111111111111111111111 c
b1111111111111111111111 H
b1111111111111111111111 ]
b1111111111111111111111 7
b11 +
b1111111111111111111111 Z
1!
#124000
0!
#125000
b10111111110000000100000001001000 Y
b1 P
bx I
b100000000011000 d
b100 l
b10111111110000000000000000110000 e
b1111111111111111111111 /
b10111111110000000000000000110000 a
bx :
1^
0f
b11 m
b0 n
b10 5
b0 k
b0 g
b1 h
bx c
b10110110000100000100000000011000 H
b10110110000100000100000000011000 ]
b10110110000100000100000000011000 7
bx 2
b100 +
b11 &
b11 \
b11111111111111111111111111111010 Z
1!
#126000
0!
#127000
b10111111110000000000000000110100 Y
b100000 -
b1000 ,
b100 d
b10111111110000000100000001001000 c
b10111111110000000000000000110100 H
b10111111110000000100000001001000 ]
b10111111110000000000000000110100 7
b1000 I
b1000 L
0K
0^
14
1B
b1 m
b0 5
b0 h
b1000 :
b0 +
b1000 2
b10111111110000000100000001001000 Z
b10 &
b10 \
1!
#128000
0!
#129000
b0 )
b0 Q
b0 U
b0 X
b10110000000000000000000000100000 8
b0 0
b0 1
b100000 d
b0 l
b10111111110000000000000001010100 Y
b10110000000000000000000000100000 H
b10110000000000000000000000100000 ]
b10110000000000000000000000100000 7
b10111111110000000000000000110100 a
1K
1^
04
0B
b11 m
b10 5
b1 g
b10111111110000000000000000110100 c
b10111111110000000000000000110100 e
b1 +
b0 &
b0 \
b10111111110000000000000000110100 Z
b1000 A
b10111111110000000000000000110100 6
1!
#130000
0!
#131000
b0 Y
b0 P
b0 I
b0 d
b10111111110000000000000001010100 H
b10111111110000000000000001010100 ]
b10111111110000000000000001010100 7
b0 e
1j
1i
b0 :
1>
0^
b1 n
b110 m
b1 5
b10111111110000000000000001010100 c
b10 +
b0 2
b10111111110000000000000001010100 Z
1!
#132000
0!
#133000
0i
0j
b0 H
b0 ]
b0 7
b0 a
0>
1`
b0 m
b10 k
b0 c
b11 +
1@
b0 Z
1!
#134000
0!
#135000
b1010 c
b10111111110000000000000001010100 Y
b1 P
b1010 I
b100000 d
b10111111110000000000000000110100 e
b10110000000000000000000000100000 H
b10110000000000000000000000100000 ]
b10110000000000000000000000100000 7
b10111111110000000000000000110100 a
b1010 :
1^
0`
b11 m
b0 n
b10 5
b0 k
b0 g
b1 h
b100 +
b1010 2
1!
#136000
0!
#137000
b10111111110000000000000000111000 Y
b0 -
b0 ,
b0 I
b100 d
b10111111110000000000000001010100 c
b10111111110000000000000000111000 H
b10111111110000000000000001010100 ]
b10111111110000000000000000111000 7
b0 L
b0 :
0K
0^
14
1B
b1 m
b0 5
b0 h
b0 2
b0 +
b10111111110000000000000001010100 Z
1!
#138000
0!
