test/waveforms/SUBU.vcd
$date
	Mon Dec 14 12:06:43 2020
$end
$version
	Icarus Verilog
$end
$timescale
	10ps
$end
$scope module mips_tb $end
$scope module cpuInst $end
$var wire 1 ! clk $end
$var wire 32 " constant_1 [31:0] $end
$var wire 32 # constant_31 [31:0] $end
$var wire 32 $ constant_4 [31:0] $end
$var wire 32 % constant_reset [31:0] $end
$var wire 2 & lrmuxLSB [1:0] $end
$var wire 1 ' reset $end
$var wire 1 ( waitrequest $end
$var wire 32 ) writedata [31:0] $end
$var wire 1 * write $end
$var wire 4 + state [3:0] $end
$var wire 32 , signimm [31:0] $end
$var wire 32 - shiftimm [31:0] $end
$var wire 1 . reset_mux_cnt $end
$var wire 32 / register_v0 [31:0] $end
$var wire 32 0 regbout [31:0] $end
$var wire 32 1 regaout [31:0] $end
$var wire 32 2 readdata [31:0] $end
$var wire 1 3 read $end
$var wire 1 4 pc_write $end
$var wire 2 5 pc_src_mux [1:0] $end
$var wire 32 6 pc_out [31:0] $end
$var wire 32 7 pc_data [31:0] $end
$var wire 32 8 pc4_jump2 [31:0] $end
$var wire 3 9 msk_cnt [2:0] $end
$var wire 32 : masked_data [31:0] $end
$var wire 1 ; lrmuxMSB $end
$var wire 1 < lr_en $end
$var wire 1 = link_in $end
$var wire 1 > link_en $end
$var wire 1 ? link $end
$var wire 1 @ jump $end
$var wire 32 A irout [31:0] $end
$var wire 1 B ir_write $end
$var wire 1 C hilowrite $end
$var wire 1 D hilosel $end
$var wire 32 E hiloout [31:0] $end
$var wire 1 F halt $end
$var wire 32 G final_pc_data [31:0] $end
$var wire 32 H final_data [31:0] $end
$var wire 2 I extendcont [1:0] $end
$var wire 1 J extend_mux $end
$var wire 16 K extend_in [15:0] $end
$var wire 1 L divrst $end
$var wire 1 M divdone $end
$var wire 32 N constant_0 [31:0] $end
$var wire 2 O cond [1:0] $end
$var wire 4 P byteenable [3:0] $end
$var wire 1 Q byte_store_en $end
$var wire 2 R byte_cnt [1:0] $end
$var wire 32 S bout [31:0] $end
$var wire 32 T aout [31:0] $end
$var wire 32 U aluresult [31:0] $end
$var wire 32 V aluout [31:0] $end
$var wire 4 W aluop [3:0] $end
$var wire 2 X alu2out [1:0] $end
$var wire 32 Y altpcsrc [31:0] $end
$var wire 1 Z altpcmux_cnt $end
$var wire 32 [ altpcdata [31:0] $end
$var wire 1 \ alt_pc_write $end
$var wire 32 ] address [31:0] $end
$var wire 1 ^ active $end
$var wire 32 _ WriteRegData [31:0] $end
$var wire 32 ` SrcBOut [31:0] $end
$var wire 32 a SrcAOut [31:0] $end
$var wire 1 b RegWrite $end
$var wire 2 c RegDst [1:0] $end
$var wire 2 d MemToReg [1:0] $end
$var wire 1 e Jump_EN $end
$var wire 1 f JumpIN $end
$var wire 2 g IorD_cnt [1:0] $end
$var wire 5 h Dst [4:0] $end
$var wire 3 i ALUSrcB [2:0] $end
$var wire 2 j ALUSrcA [1:0] $end
$var wire 1 k ABswitch_cnt $end
$upscope $end
$upscope $end
$enddefinitions $end
#0
$dumpvars
xk
bx j
bx i
bx h
bx g
0f
0e
bx d
bx c
xb
bx a
bx `
bx _
x^
bx ]
x\
bx [
xZ
bx Y
bx X
bx W
bx V
bx U
bx T
bx S
bx R
xQ
bx P
bx O
bx N
1M
xL
bx K
xJ
bx I
bx H
bx G
xF
bx E
xD
xC
xB
bx A
x@
x?
x>
x=
x<
x;
bx :
bx 9
bx00 8
bx 7
bx 6
bx 5
x4
x3
bx 2
bx 1
bx 0
bx /
x.
bx00 -
bx ,
bx +
x*
bx )
0(
0'
bx &
b10111111110000000000000000000000 %
b100 $
b11111 #
b1 "
0!
$end
#1000
b10110000000000000000000000000000 8
0@
0?
b0 &
b0 X
b0 V
b0 A
b10111111110000000000000000000000 6
b0 [
1'
1!
#2000
0!
#3000
b0 -
b10111111110000000000000000000100 7
b0 )
b10111111110000000000000000000100 U
b1 O
b100 `
b0 h
b0 _
b0 K
b0 ,
b10111111110000000000000000000000 a
b0 S
b0 T
b10111111110000000000000000000000 G
b10110000000000000000000000000000 Y
b10111111110000000000000000000000 ]
b1111 P
0Q
1J
0L
0=
0>
b0 W
b0 R
b0 9
0;
0<
0D
0C
1.
1Z
0\
b0 I
0k
0b
14
13
0*
0B
b1 i
b0 j
b0 5
b0 g
b0 c
b0 d
b0 N
b0 /
b0 0
b0 1
0'
0F
b1111 +
1^
1!
#4000
0!
#5000
b10001100000000110000000000001000 H
b10001100000000110000000000001000 :
b10111111110000000000000000000100 _
b10001100000000110000000000001000 2
b1110 +
b0 E
b10111111110000000000000000000100 V
1!
#6000
0!
#7000
b100000 -
b1000 ,
b1000 K
b10111111110000000000000000000100 G
b10111111110000000000000000000100 Y
0J
0.
0Z
1B
b0 +
1!
#8000
0!
#9000
b10110000000011000000000000100000 8
b11 h
b100000 `
b10111111110000000000000000100100 U
b10110000000011000000000000100000 G
b10110000000011000000000000100000 Y
b10110000000011000000000000100000 7
b10111111110000000000000000000100 ]
1J
1Z
b10 I
04
0B
b11 i
b10 5
b10111111110000000000000000000100 a
b1 +
b10001100000000110000000000001000 A
b10111111110000000000000000000100 6
1!
#10000
0!
#11000
b1000 U
b10001100000001000000000000001100 H
b0 a
b1000 `
1e
b10111111110000000000000000100100 G
b10111111110000000000000000100100 Y
b10111111110000000000000000100100 7
b10001100000001000000000000001100 :
1>
0Z
b1 j
b10 i
b1 5
b10111111110000000000000000100100 _
b10 +
b10001100000001000000000000001100 2
b10111111110000000000000000100100 V
1!
#12000
0!
#13000
b0 U
b0 O
b0 `
0e
b1000 G
b1000 Y
b1000 7
b1000 ]
0>
b0 i
b1 g
b1000 _
b11 +
b1000 V
1!
#14000
0!
#15000
b10111111110000000000000000100100 U
b1 O
b11111111111111111111111111111111 H
b100000 `
b10111111110000000000000000000100 a
b10110000000011000000000000100000 G
b10110000000011000000000000100000 Y
b10110000000011000000000000100000 7
b10111111110000000000000000000100 ]
b11111111111111111111111111111111 :
1Z
1b
b11 i
b0 j
b10 5
b0 g
b1 d
b11111111111111111111111111111111 _
b100 +
b11111111111111111111111111111111 2
b0 V
1!
#16000
0!
#17000
b110000 -
b1100 ,
b10111111110000000000000000001000 U
b11111111111111111111111111111111 )
b10001100000001000000000000001100 H
b100 `
b10111111110000000000000000100100 _
b1100 K
b11111111111111111111111111111111 S
b10111111110000000000000000001000 G
b10111111110000000000000000100100 Y
b10111111110000000000000000001000 7
b10001100000001000000000000001100 :
0J
0Z
b0 I
0b
14
1B
b1 i
b0 5
b0 d
b11111111111111111111111111111111 0
b10001100000001000000000000001100 2
b0 +
b10111111110000000000000000100100 V
1!
#18000
0!
#19000
b0 )
b0 S
b10110000000100000000000000110000 8
b100 h
b0 0
b110000 `
b10111111110000000000000000111000 U
b10110000000100000000000000110000 G
b10110000000100000000000000110000 Y
b10110000000100000000000000110000 7
b10111111110000000000000000001000 ]
1J
1Z
b10 I
04
0B
b11 i
b10 5
b10111111110000000000000000001000 _
b10111111110000000000000000001000 a
b1 +
b10111111110000000000000000001000 6
b10001100000001000000000000001100 A
b10111111110000000000000000001000 V
1!
#20000
0!
#21000
b1100 U
b11001000001000000100011 H
b1100 `
b10111111110000000000000000111000 G
b10111111110000000000000000111000 Y
b10111111110000000000000000111000 7
b0 a
1e
b11001000001000000100011 :
1>
0Z
b1 j
b10 i
b1 5
b10111111110000000000000000111000 _
b11001000001000000100011 2
b10 +
b10111111110000000000000000111000 V
1!
#22000
0!
#23000
b0 U
b0 O
b0 `
0e
b1100 ]
0>
b0 i
b1 g
b1100 _
b1100 G
b1100 Y
b1100 7
b11 +
b1100 V
1!
#24000
0!
#25000
b10111111110000000000000000111000 U
b1 O
b1000100001100110010001000010001 H
b110000 `
b10111111110000000000000000001000 a
b10111111110000000000000000001000 ]
b1000100001100110010001000010001 :
1Z
1b
b11 i
b0 j
b10 5
b0 g
b1 d
b1000100001100110010001000010001 _
b10110000000100000000000000110000 G
b10110000000100000000000000110000 Y
b10110000000100000000000000110000 7
b1000100001100110010001000010001 2
b100 +
b0 V
1!
#26000
0!
#27000
b1000100001100110010001000010001 )
b10111111110000000000000000001100 U
b100000010001100 -
b1000100001100110010001000010001 S
b1000000100011 ,
b11001000001000000100011 H
b100 `
b10111111110000000000000000111000 _
b10111111110000000000000000001100 G
b10111111110000000000000000111000 Y
b10111111110000000000000000001100 7
b1000100001100110010001000010001 0
b1000000100011 K
b11001000001000000100011 :
0J
0Z
b0 I
0b
14
1B
b1 i
b0 5
b0 d
b0 +
b11001000001000000100011 2
b10111111110000000000000000111000 V
1!
#28000
0!
#29000
b11111111111111111111111111111111 T
b10110001100100000100000010001100 8
b11111111111111111111111111111111 1
b100000010001100 `
b10 h
b10111111110000000100000010011000 U
b10110001100100000100000010001100 G
b10110001100100000100000010001100 Y
b10110001100100000100000010001100 7
b10111111110000000000000000001100 ]
1J
1Z
04
0B
b11 i
b10 5
b1 c
b10111111110000000000000000001100 _
b10111111110000000000000000001100 a
b1 +
b10111111110000000000000000001100 V
b11001000001000000100011 A
b10111111110000000000000000001100 6
1!
#30000
0!
#31000
b10101100000000100000000000011000 H
b1000100001100110010001000010001 `
b10111111110000000100000010011000 G
b10111111110000000100000010011000 Y
b10111111110000000100000010011000 7
b11111111111111111111111111111111 a
b10111011110011001101110111101110 U
1e
b10101100000000100000000000011000 :
1>
b1 W
0Z
b1 j
b0 i
b1 5
b10111111110000000100000010011000 _
b10 +
b10101100000000100000000000011000 2
b10111111110000000100000010011000 V
1!
#32000
0!
#33000
b1000100001100110010001000010000 U
0e
b10111011110011001101110111101100 ]
0>
b0 W
1b
b10 g
b10111011110011001101110111101110 _
b10111011110011001101110111101110 G
b10111011110011001101110111101110 Y
b10111011110011001101110111101110 7
b11 +
b10111011110011001101110111101110 V
1!
#34000
0!
#35000
b10111111110000000100000010011000 U
b100000010001100 `
b10111111110000000000000000001100 ]
b100 h
bx H
b10111011110011001101110111101110 /
b10111111110000000000000000001100 a
1Z
0b
b11 i
b0 j
b10 5
b0 g
b0 c
b1 d
bx _
b10110001100100000100000010001100 G
b10110001100100000100000010001100 Y
b10110001100100000100000010001100 7
bx :
b100 +
bx 2
b1000100001100110010001000010000 V
b10 &
b10 X
1!
#36000
0!
#37000
b10111111110000000000000000010000 U
b1100000 -
b11000 ,
b10101100000000100000000000011000 H
b100 `
b10111111110000000100000010011000 _
b10111111110000000000000000010000 G
b10111111110000000100000010011000 Y
b10111111110000000000000000010000 7
b11000 K
b10101100000000100000000000011000 :
0J
0Z
14
1B
b1 i
b0 5
b0 d
b10101100000000100000000000011000 2
b0 +
b0 &
b0 X
b10111111110000000100000010011000 V
1!
#38000
0!
#39000
b10110000000010000000000001100000 8
b10111011110011001101110111101110 )
b10 h
b1100000 `
b10110000000010000000000001100000 G
b10110000000010000000000001100000 7
b10111011110011001101110111101110 S
b0 T
b10111111110000000000000001110000 U
b10111011110011001101110111101110 0
b0 1
b10111111110000000000000000010000 a
b10111111110000000000000000010000 ]
1J
1Z
b10 I
04
0B
b11 i
b10 5
b10111111110000000000000000010000 _
b10110000000010000000000001100000 Y
b1 +
b10111111110000000000000000010000 6
b10101100000000100000000000011000 A
b10111111110000000000000000010000 V
1!
#40000
0!
#41000
b11000 U
b100000110001000000100011 H
b11000 `
b10111111110000000000000001110000 G
b10111111110000000000000001110000 Y
b10111111110000000000000001110000 7
b0 a
1e
b100000110001000000100011 :
1>
0Z
b1 j
b10 i
b1 5
b10111111110000000000000001110000 _
b100000110001000000100011 2
b10 +
b10111111110000000000000001110000 V
1!
#42000
0!
#43000
b10111011110011001101110111101110 U
b10 O
b10111011110011001101110111101110 `
0e
b11000 ]
0>
03
1*
b0 i
b1 g
b11000 _
b11000 G
b11000 Y
b11000 7
b11 +
b11000 V
1!
#44000
0!
#45000
b10111111110000000000000001110000 U
b1 O
b1100000 `
b10111111110000000000000000010000 a
b10111111110000000000000000010000 ]
1Z
13
0*
b11 i
b0 j
b10 5
b0 g
b1 d
b100000110001000000100011 _
b10110000000010000000000001100000 G
b10110000000010000000000001100000 Y
b10110000000010000000000001100000 7
b100 +
b10111011110011001101110111101110 V
1!
#46000
0!
#47000
b10111111110000000000000000010100 U
b100000010001100 -
b1000000100011 ,
b100 `
b10111111110000000000000001110000 _
b10111111110000000000000000010100 G
b10111111110000000000000001110000 Y
b10111111110000000000000000010100 7
b1000000100011 K
0J
0Z
b0 I
14
1B
b1 i
b0 5
b0 d
b0 +
b10111111110000000000000001110000 V
b10 &
b10 X
1!
#48000
0!
#49000
b11111111111111111111111111111111 )
b11111111111111111111111111111111 S
b1000100001100110010001000010001 T
b10110010000011000100000010001100 8
b11111111111111111111111111111111 0
b1000100001100110010001000010001 1
b100000010001100 `
b10111111110000000100000010100000 U
b10110010000011000100000010001100 G
b10110010000011000100000010001100 Y
b10110010000011000100000010001100 7
b10111111110000000000000000010100 ]
1J
1Z
04
0B
b11 i
b10 5
b1 c
b10111111110000000000000000010100 _
b10111111110000000000000000010100 a
b1 +
b0 &
b0 X
b10111111110000000000000000010100 V
b100000110001000000100011 A
b10111111110000000000000000010100 6
1!
#50000
0!
#51000
b10 O
b10101100000000100000000000011100 H
b11111111111111111111111111111111 `
b10111111110000000100000010100000 G
b10111111110000000100000010100000 Y
b10111111110000000100000010100000 7
b1000100001100110010001000010001 a
b1000100001100110010001000010010 U
1e
b10101100000000100000000000011100 :
1>
b1 W
0Z
b1 j
b0 i
b1 5
b10111111110000000100000010100000 _
b10 +
b10101100000000100000000000011100 2
b10111111110000000100000010100000 V
1!
#52000
0!
#53000
b1000100001100110010001000010000 U
0e
b1000100001100110010001000010000 ]
0>
b0 W
1b
b10 g
b1000100001100110010001000010010 _
b1000100001100110010001000010010 G
b1000100001100110010001000010010 Y
b1000100001100110010001000010010 7
b11 +
b1000100001100110010001000010010 V
1!
#54000
0!
#55000
b10111111110000000100000010100000 U
b1 O
b100000010001100 `
b10111111110000000000000000010100 ]
b11 h
bx H
b1000100001100110010001000010010 /
b10111111110000000000000000010100 a
1Z
0b
b11 i
b0 j
b10 5
b0 g
b0 c
b1 d
bx _
b10110010000011000100000010001100 G
b10110010000011000100000010001100 Y
b10110010000011000100000010001100 7
bx :
b100 +
bx 2
b1000100001100110010001000010000 V
b10 &
b10 X
1!
#56000
0!
#57000
b10111111110000000000000000011000 U
b1110000 -
b11100 ,
b10101100000000100000000000011100 H
b100 `
b10111111110000000100000010100000 _
b10111111110000000000000000011000 G
b10111111110000000100000010100000 Y
b10111111110000000000000000011000 7
b11100 K
b10101100000000100000000000011100 :
0J
0Z
14
1B
b1 i
b0 5
b0 d
b10101100000000100000000000011100 2
b0 +
b0 &
b0 X
b10111111110000000100000010100000 V
1!
#58000
0!
#59000
b10110000000010000000000001110000 8
b1000100001100110010001000010010 )
b10 h
b1110000 `
b10110000000010000000000001110000 G
b10110000000010000000000001110000 7
b1000100001100110010001000010010 S
b0 T
b10111111110000000000000010001000 U
b1000100001100110010001000010010 0
b0 1
b10111111110000000000000000011000 a
b10111111110000000000000000011000 ]
1J
1Z
b10 I
04
0B
b11 i
b10 5
b10111111110000000000000000011000 _
b10110000000010000000000001110000 Y
b1 +
b10111111110000000000000000011000 6
b10101100000000100000000000011100 A
b10111111110000000000000000011000 V
1!
#60000
0!
#61000
b11100 U
b100001000001000000100011 H
b11100 `
b10111111110000000000000010001000 G
b10111111110000000000000010001000 Y
b10111111110000000000000010001000 7
b0 a
1e
b100001000001000000100011 :
1>
0Z
b1 j
b10 i
b1 5
b10111111110000000000000010001000 _
b100001000001000000100011 2
b10 +
b10111111110000000000000010001000 V
1!
#62000
0!
#63000
b1000100001100110010001000010010 U
b1000100001100110010001000010010 `
0e
b11100 ]
0>
03
1*
b0 i
b1 g
b11100 _
b11100 G
b11100 Y
b11100 7
b11 +
b11100 V
1!
#64000
0!
#65000
b10111111110000000000000010001000 U
b1110000 `
b10111111110000000000000000011000 a
b10111111110000000000000000011000 ]
1Z
13
0*
b11 i
b0 j
b10 5
b0 g
b1 d
b100001000001000000100011 _
b10110000000010000000000001110000 G
b10110000000010000000000001110000 Y
b10110000000010000000000001110000 7
b100 +
b1000100001100110010001000010010 V
1!
#66000
0!
#67000
b10111111110000000000000000011100 U
b100000010001100 -
b1000000100011 ,
b100 `
b10111111110000000000000010001000 _
b10111111110000000000000000011100 G
b10111111110000000000000010001000 Y
b10111111110000000000000000011100 7
b1000000100011 K
0J
0Z
b0 I
14
1B
b1 i
b0 5
b0 d
b0 +
b10111111110000000000000010001000 V
b10 &
b10 X
1!
#68000
0!
#69000
b1000100001100110010001000010001 )
b1000100001100110010001000010001 S
b1000100001100110010001000010001 T
b10110010000100000100000010001100 8
b1000100001100110010001000010001 0
b1000100001100110010001000010001 1
b100000010001100 `
b10111111110000000100000010101000 U
b10110010000100000100000010001100 G
b10110010000100000100000010001100 Y
b10110010000100000100000010001100 7
b10111111110000000000000000011100 ]
1J
1Z
04
0B
b11 i
b10 5
b1 c
b10111111110000000000000000011100 _
b10111111110000000000000000011100 a
b1 +
b0 &
b0 X
b10111111110000000000000000011100 V
b100001000001000000100011 A
b10111111110000000000000000011100 6
1!
#70000
0!
#71000
b0 O
b10101100000000100000000000100000 H
b1000100001100110010001000010001 `
b10111111110000000100000010101000 G
b10111111110000000100000010101000 Y
b10111111110000000100000010101000 7
b1000100001100110010001000010001 a
b0 U
1e
b10101100000000100000000000100000 :
1>
b1 W
0Z
b1 j
b0 i
b1 5
b10111111110000000100000010101000 _
b10 +
b10101100000000100000000000100000 2
b10111111110000000100000010101000 V
1!
#72000
0!
#73000
b10001000011001100100010000100010 U
0e
b0 ]
0>
b0 W
1b
b10 g
b0 _
b0 G
b0 Y
b0 7
b11 +
b0 V
1!
#74000
0!
#75000
b10111111110000000100000010101000 U
b1 O
b0 H
b100000010001100 `
b100 h
b0 /
b10111111110000000000000000011100 a
b10111111110000000000000000011100 ]
b0 :
1Z
0b
b11 i
b0 j
b10 5
b0 g
b0 c
b1 d
b0 _
b10110010000100000100000010001100 G
b10110010000100000100000010001100 Y
b10110010000100000100000010001100 7
b100 +
b0 2
b10001000011001100100010000100010 V
1!
#76000
0!
#77000
b10111111110000000000000000100000 U
b10000000 -
b100000 ,
b10101100000000100000000000100000 H
b100 `
b10111111110000000100000010101000 _
b10111111110000000000000000100000 G
b10111111110000000100000010101000 Y
b10111111110000000000000000100000 7
b100000 K
b10101100000000100000000000100000 :
0J
0Z
14
1B
b1 i
b0 5
b0 d
b10101100000000100000000000100000 2
b0 +
b10 &
b10 X
b10111111110000000100000010101000 V
1!
#78000
0!
#79000
b10110000000010000000000010000000 8
b10 h
b10000000 `
b10110000000010000000000010000000 G
b10110000000010000000000010000000 7
b0 )
b0 S
b0 T
b10111111110000000000000010100000 U
b0 0
b0 1
b10111111110000000000000000100000 a
1J
1Z
b10 I
04
0B
b11 i
b10 5
b10111111110000000000000000100000 _
b10110000000010000000000010000000 Y
b10111111110000000000000000100000 ]
b1 +
b10111111110000000000000000100000 6
b10101100000000100000000000100000 A
b10111111110000000000000000100000 V
b0 &
b0 X
1!
#80000
0!
#81000
b100000 U
b100100000001011000011100000111 H
b100000 `
b10111111110000000000000010100000 G
b10111111110000000000000010100000 Y
b10111111110000000000000010100000 7
b0 a
1e
b100100000001011000011100000111 :
1>
0Z
b1 j
b10 i
b1 5
b10111111110000000000000010100000 _
b100100000001011000011100000111 2
b10 +
b10111111110000000000000010100000 V
1!
#82000
0!
#83000
b0 U
b0 O
b0 `
0e
b100000 ]
0>
03
1*
b0 i
b1 g
b100000 _
b100000 G
b100000 Y
b100000 7
b11 +
b100000 V
1!
#84000
0!
#85000
b10111111110000000000000010100000 U
b1 O
b10000000 `
b10111111110000000000000000100000 a
b10110000000010000000000010000000 G
b10110000000010000000000010000000 Y
b10110000000010000000000010000000 7
b10111111110000000000000000100000 ]
1Z
13
0*
b11 i
b0 j
b10 5
b0 g
b1 d
b100100000001011000011100000111 _
b100 +
b0 V
1!
#86000
0!
#87000
b10111111110000000000000000100100 U
b100001110000011100 -
b1000011100000111 ,
b100 `
b10111111110000000000000010100000 _
b10111111110000000000000000100100 G
b10111111110000000000000010100000 Y
b10111111110000000000000000100100 7
b1000011100000111 K
0J
0Z
b0 I
14
1B
b1 i
b0 5
b0 d
b0 +
b10111111110000000000000010100000 V
1!
#88000
0!
#89000
b10110000000101100001110000011100 8
b11111111111111100001110000011100 -
b101 h
b11111111111111111000011100000111 ,
b100001110000011100 `
b10111111110000100001110001000000 U
b10110000000101100001110000011100 G
b10110000000101100001110000011100 Y
b10110000000101100001110000011100 7
b10111111110000000000000000100100 ]
1J
1Z
b10 I
04
0B
b11 i
b10 5
b10111111110000000000000000100100 _
b10111111110000000000000000100100 a
b1 +
b10111111110000000000000000100100 V
b100100000001011000011100000111 A
b10111111110000000000000000100100 6
1!
#90000
0!
#91000
b11111111111111111000011100000111 U
b10 O
b100001010001000000100011 H
b11111111111111111000011100000111 `
b10111111110000100001110001000000 G
b10111111110000100001110001000000 Y
b10111111110000100001110001000000 7
b0 a
1e
b100001010001000000100011 :
1>
0Z
b1 j
b10 i
b1 5
b10111111110000100001110001000000 _
b10 +
b100001010001000000100011 2
b10111111110000100001110001000000 V
1!
#92000
0!
#93000
b0 U
b0 O
b0 `
0e
b11111111111111111000011100000100 ]
0>
1b
b0 i
b10 g
b11111111111111111000011100000111 _
b11111111111111111000011100000111 G
b11111111111111111000011100000111 Y
b11111111111111111000011100000111 7
b11 +
b11111111111111111000011100000111 V
1!
#94000
0!
#95000
b10111111101111100001110001000000 U
b1 O
b11111111111111111000011100000111 )
bx H
b11111111111111100001110000011100 `
b10111111110000000000000000100100 a
b11111111111111111000011100000111 S
b10110000000101100001110000011100 G
b10110000000101100001110000011100 Y
b10110000000101100001110000011100 7
b10111111110000000000000000100100 ]
bx :
1Z
0b
b11 i
b0 j
b10 5
b0 g
b1 d
bx _
b11111111111111111000011100000111 0
b100 +
bx 2
b0 V
b11 &
b11 X
1!
#96000
0!
#97000
b10111111110000000000000000101000 U
b100000010001100 -
b100001010001000000100011 H
b100 `
b10111111101111100001110001000000 _
b10111111110000000000000000101000 G
b10111111101111100001110001000000 Y
b10111111110000000000000000101000 7
b1000000100011 K
b1000000100011 ,
b100001010001000000100011 :
0J
0Z
b0 I
14
1B
b1 i
b0 5
b0 d
b100001010001000000100011 2
b0 +
b0 &
b0 X
b10111111101111100001110001000000 V
1!
#98000
0!
#99000
b10110010000101000100000010001100 8
b100000010001100 `
b10 h
b10110010000101000100000010001100 G
b10110010000101000100000010001100 7
b1000100001100110010001000010001 T
b10111111110000000100000010110100 U
b1000100001100110010001000010001 1
b10111111110000000000000000101000 a
b10111111110000000000000000101000 ]
1J
1Z
04
0B
b11 i
b10 5
b1 c
b10111111110000000000000000101000 _
b10110010000101000100000010001100 Y
b1 +
b10111111110000000000000000101000 6
b100001010001000000100011 A
b10111111110000000000000000101000 V
1!
#100000
0!
#101000
b10 O
b1000 H
b11111111111111111000011100000111 `
b10111111110000000100000010110100 G
b10111111110000000100000010110100 Y
b10111111110000000100000010110100 7
b1000100001100110010001000010001 a
b1000100001100111001101100001010 U
1e
b1000 :
1>
b1 W
0Z
b1 j
b0 i
b1 5
b10111111110000000100000010110100 _
b1000 2
b10 +
b10111111110000000100000010110100 V
1!
#102000
0!
#103000
b1000100001100101010100100011000 U
0e
b1000100001100111001101100001000 ]
0>
b0 W
1b
b10 g
b1000100001100111001101100001010 _
b1000100001100111001101100001010 G
b1000100001100111001101100001010 Y
b1000100001100111001101100001010 7
b11 +
b1000100001100111001101100001010 V
1!
#104000
0!
#105000
b10111111110000000100000010110100 U
b1 O
bx H
b100000010001100 `
b101 h
b10111111110000000000000000101000 a
b1000100001100111001101100001010 /
b10111111110000000000000000101000 ]
bx :
1Z
0b
b11 i
b0 j
b10 5
b0 g
b0 c
b1 d
bx _
b10110010000101000100000010001100 G
b10110010000101000100000010001100 Y
b10110010000101000100000010001100 7
bx 2
b100 +
b10 &
b10 X
b1000100001100101010100100011000 V
1!
#106000
0!
#107000
b10111111110000000000000000101100 U
b100000 -
b1000 ,
b100 `
b10111111110000000100000010110100 _
b10111111110000000000000000101100 G
b10111111110000000100000010110100 Y
b10111111110000000000000000101100 7
b1000 H
b1000 K
0J
0Z
14
1B
b1 i
b0 5
b0 d
b1000 :
b0 +
b1000 2
b10111111110000000100000010110100 V
b0 &
b0 X
1!
#108000
0!
#109000
b0 )
b0 S
b0 T
b10110000000000000000000000100000 8
b0 0
b0 1
b100000 `
b0 h
b10111111110000000000000001001100 U
b10110000000000000000000000100000 G
b10110000000000000000000000100000 Y
b10110000000000000000000000100000 7
b10111111110000000000000000101100 ]
1J
1Z
04
0B
b11 i
b10 5
b1 c
b10111111110000000000000000101100 _
b10111111110000000000000000101100 a
b1 +
b10111111110000000000000000101100 V
b1000 A
b10111111110000000000000000101100 6
1!
#110000
0!
#111000
b0 U
b0 O
b0 H
b0 `
b10111111110000000000000001001100 G
b10111111110000000000000001001100 Y
b10111111110000000000000001001100 7
b0 a
1f
1e
b0 :
1>
0Z
b1 j
b110 i
b1 5
b10111111110000000000000001001100 _
b10 +
b0 2
b10111111110000000000000001001100 V
1!
#112000
0!
#113000
0e
0f
b0 G
b0 Y
b0 7
b0 ]
0>
1\
b0 i
b10 g
b0 _
b11 +
1@
b0 V
1!
#114000
0!
#115000
b10111111110000000000000001001100 U
b1 O
b100000 `
b10111111110000000000000000101100 a
b10110000000000000000000000100000 G
b10110000000000000000000000100000 Y
b10110000000000000000000000100000 7
b10111111110000000000000000101100 ]
1Z
0\
b11 i
b0 j
b10 5
b0 g
b0 c
b1 d
b100 +
1!
#116000
0!
#117000
b10111111110000000000000000110000 U
b0 -
b0 ,
b100 `
b10111111110000000000000001001100 _
b10111111110000000000000000110000 G
b10111111110000000000000001001100 Y
b10111111110000000000000000110000 7
b0 K
0J
0Z
14
1B
b1 i
b0 5
b0 d
b0 +
b10111111110000000000000001001100 V
1!
#118000
0!
#119000
b10110000000000000000000000000000 8
b11111 h
b0 G
b0 7
b10111111110000000000000000110100 U
b10111111110000000000000000110000 a
b10111111110000000000000000110000 ]
1J
1>
1Z
0B
b11 5
b10 c
b11 d
b10111111110000000000000000110100 _
b10110000000000000000000000000000 Y
b1001 +
b10111111110000000000000000110000 6
b0 A
b10111111110000000000000000110000 V
1!
#120000
0!
#121000
b0 O
b0 8
b0 `
b0 h
b0 U
1e
b10111111110000000000000000110100 G
b10111111110000000000000000110100 Y
b10111111110000000000000000110100 7
b0 ]
b101 W
0Z
1k
04
b1 j
b100 i
b1 5
b1 c
b0 d
b0 a
b10 +
b10111111110000000000000000110100 V
b0 6
1!
#122000
0!
#123000
0e
b0 G
b0 Y
b0 7
b0 ]
0>
b0 W
0k
1b
b0 i
b10 g
b0 _
1F
b11 +
b0 V
0@
1!
#124000
0!
#125000
1Z
0b
b11 i
b0 j
b10 5
b0 g
b0 c
b1 d
b100 +
1!
#126000
0!
#127000
b100 G
b100 7
b100 U
b1 O
b100 `
03
b1 i
b0 5
b0 d
b101 +
1!
#128000
0!
#129000
b100 _
0^
b100 V
1!
